cohort,universal_patient_id,sub_cohort,tissue,slide,marker,events
NI240,N188,1,tumour,A,cMET,4.0
NI240,N188,1,tumour,A,HE,6.0
NI240,N188,1,tumour,B,cMET,0.0
NI240,N188,1,tumour,B,HE,2.0
NI240,N188,1,tumour,C,cMET,3.0
NI240,N188,1,tumour,C,HE,9.0
NI240,N188,1,invasive front,D,cMET,2.0
NI240,N188,1,invasive front,D,HE,0.0
NI240,N188,1,normal,F,cMET,0.0
NI240,N188,1,normal,F,HE,1.0
NI240,N188,1,normal,G,cMET,0.0
NI240,N188,1,normal,G,HE,0.0
NI240,N022,2,tumour,A,cMET,0.0
NI240,N022,2,tumour,A,HE,0.0
NI240,N022,2,tumour,B,cMET,0.0
NI240,N022,2,tumour,B,HE,2.0
NI240,N022,2,tumour,C,cMET,1.0
NI240,N022,2,tumour,C,HE,1.0
NI240,N022,2,invasive front,D,cMET,2.0
NI240,N022,2,invasive front,D,HE,3.0
NI240,N022,2,normal,E,cMET,0.0
NI240,N022,2,normal,E,HE,0.0
NI240,N022,2,normal,F,cMET,0.0
NI240,N022,2,normal,F,HE,1.0
NI240,N022,2,normal,G,cMET,0.0
NI240,N022,2,normal,G,HE,0.0
NI240,N178,1,tumour,A,HE,0.0
NI240,N178,1,tumour,B,cMET,0.0
NI240,N178,1,tumour,B,HE,1.0
NI240,N178,1,tumour,C,cMET,0.0
NI240,N178,1,tumour,C,HE,3.0
NI240,N178,1,invasive front,D,cMET,1.0
NI240,N178,1,invasive front,D,HE,0.0
NI240,N237,2,normal,E,cMET,5.0
NI240,N237,2,normal,E,HE,1.0
NI240,N237,2,normal,F,cMET,0.0
NI240,N237,2,normal,F,HE,1.0
NI240,N237,2,normal,G,cMET,0.0
NI240,N237,2,normal,G,HE,0.0
NI240,N239,1,tumour,A,cMET,0.0
NI240,N239,1,tumour,A,HE,0.0
NI240,N239,1,tumour,B,cMET,1.0
NI240,N239,1,tumour,B,HE,0.0
NI240,N239,1,tumour,C,cMET,2.0
NI240,N239,1,tumour,C,HE,0.0
NI240,N239,1,invasive front,D,cMET,0.0
NI240,N239,1,invasive front,D,HE,0.0
NI240,N239,1,normal,E,cMET,1.0
NI240,N239,1,normal,E,HE,0.0
NI240,N239,1,normal,F,cMET,0.0
NI240,N239,1,normal,F,HE,0.0
NI240,N239,1,normal,G,cMET,0.0
NI240,N239,1,normal,G,HE,2.0
NI240,N107,2,tumour,A,cMET,0.0
NI240,N107,2,tumour,A,HE,0.0
NI240,N107,2,tumour,B,cMET,0.0
NI240,N107,2,tumour,B,HE,0.0
NI240,N107,2,tumour,C,cMET,0.0
NI240,N107,2,tumour,C,HE,0.0
NI240,N107,2,invasive front,D,cMET,0.0
NI240,N107,2,invasive front,D,HE,0.0
NI240,N027,2,tumour,A,cMET,1.0
NI240,N027,2,tumour,A,HE,1.0
NI240,N027,2,tumour,B,cMET,1.0
NI240,N027,2,tumour,B,HE,0.0
NI240,N027,2,tumour,C,cMET,0.0
NI240,N027,2,tumour,C,HE,0.0
NI240,N027,2,invasive front,D,cMET,0.0
NI240,N027,2,invasive front,D,HE,0.0
NI240,N027,2,normal,E,cMET,0.0
NI240,N027,2,normal,E,HE,0.0
NI240,N027,2,normal,F,cMET,0.0
NI240,N027,2,normal,F,HE,0.0
NI240,N027,2,normal,G,cMET,0.0
NI240,N027,2,normal,G,HE,0.0
NI240,N207,1,tumour,A,cMET,0.0
NI240,N207,1,tumour,A,HE,0.0
NI240,N207,1,tumour,B,cMET,0.0
NI240,N207,1,tumour,B,HE,0.0
NI240,N207,1,tumour,C,cMET,0.0
NI240,N207,1,tumour,C,HE,0.0
NI240,N207,1,invasive front,D,cMET,0.0
NI240,N207,1,invasive front,D,HE,0.0
NI240,N207,1,normal,E,cMET,4.0
NI240,N207,1,normal,E,HE,1.0
NI240,N207,1,normal,F,cMET,0.0
NI240,N207,1,normal,F,HE,0.0
NI240,N207,1,normal,G,cMET,3.0
NI240,N207,1,normal,G,HE,0.0
NI240,N139,1,tumour,A,cMET,1.0
NI240,N139,1,tumour,A,HE,2.0
NI240,N139,1,tumour,B,cMET,3.0
NI240,N139,1,tumour,B,HE,0.0
NI240,N139,1,tumour,C,cMET,0.0
NI240,N139,1,tumour,C,HE,0.0
NI240,N139,1,invasive front,D,cMET,0.0
NI240,N139,1,invasive front,D,HE,0.0
NI240,N139,1,normal,E,cMET,0.0
NI240,N139,1,normal,E,HE,0.0
NI240,N139,1,normal,F,cMET,1.0
NI240,N139,1,normal,F,HE,1.0
NI240,N139,1,normal,G,cMET,0.0
NI240,N139,1,normal,G,HE,2.0
NI240,N031,2,tumour,A,cMET,1.0
NI240,N031,2,tumour,A,HE,1.0
NI240,N031,2,tumour,B,cMET,2.0
NI240,N031,2,tumour,B,HE,2.0
NI240,N031,2,tumour,C,cMET,0.0
NI240,N031,2,tumour,C,HE,0.0
NI240,N031,2,invasive front,D,cMET,0.0
NI240,N031,2,invasive front,D,HE,2.0
NI240,N031,2,normal,E,cMET,0.0
NI240,N031,2,normal,E,HE,0.0
NI240,N031,2,normal,F,cMET,0.0
NI240,N031,2,normal,F,HE,0.0
NI240,N031,2,normal,G,cMET,0.0
NI240,N031,2,normal,G,HE,0.0
NI240,N166,1,tumour,A,cMET,0.0
NI240,N166,1,tumour,A,HE,0.0
NI240,N166,1,tumour,B,cMET,0.0
NI240,N166,1,tumour,B,HE,2.0
NI240,N166,1,tumour,C,cMET,0.0
NI240,N166,1,tumour,C,HE,0.0
NI240,N166,1,invasive front,D,cMET,0.0
NI240,N166,1,invasive front,D,HE,0.0
NI240,N166,1,normal,E,cMET,0.0
NI240,N166,1,normal,E,HE,0.0
NI240,N166,1,normal,F,cMET,0.0
NI240,N166,1,normal,F,HE,0.0
NI240,N166,1,normal,G,cMET,1.0
NI240,N166,1,normal,G,HE,0.0
NI240,N119,1,tumour,A,cMET,1.0
NI240,N119,1,tumour,A,HE,1.0
NI240,N119,1,tumour,B,cMET,0.0
NI240,N119,1,tumour,B,HE,0.0
NI240,N119,1,tumour,C,cMET,1.0
NI240,N119,1,tumour,C,HE,0.0
NI240,N119,1,invasive front,D,cMET,1.0
NI240,N119,1,invasive front,D,HE,0.0
NI240,N119,1,normal,E,cMET,0.0
NI240,N119,1,normal,E,HE,1.0
NI240,N119,1,normal,F,cMET,0.0
NI240,N118,1,tumour,A,cMET,0.0
NI240,N118,1,tumour,A,HE,0.0
NI240,N118,1,tumour,B,cMET,0.0
NI240,N118,1,tumour,B,HE,0.0
NI240,N118,1,tumour,C,cMET,0.0
NI240,N118,1,tumour,C,HE,0.0
NI240,N118,1,invasive front,D,cMET,0.0
NI240,N118,1,invasive front,D,HE,0.0
NI240,N118,1,normal,E,cMET,0.0
NI240,N118,1,normal,E,HE,0.0
NI240,N118,1,normal,F,cMET,0.0
NI240,N118,1,normal,G,cMET,0.0
NI240,N118,1,normal,G,HE,0.0
NI240,N150,2,tumour,A,cMET,5.0
NI240,N150,2,tumour,A,HE,6.0
NI240,N150,2,tumour,B,cMET,3.0
NI240,N150,2,tumour,B,HE,3.0
NI240,N185,1,tumour,A,cMET,2.0
NI240,N185,1,tumour,A,HE,0.0
NI240,N185,1,tumour,B,cMET,3.0
NI240,N185,1,tumour,B,HE,0.0
NI240,N185,1,tumour,C,cMET,0.0
NI240,N185,1,tumour,C,HE,1.0
NI240,N185,1,invasive front,D,cMET,0.0
NI240,N185,1,invasive front,D,HE,0.0
NI240,N185,1,normal,E,cMET,3.0
NI240,N185,1,normal,E,HE,1.0
NI240,N185,1,normal,F,cMET,0.0
NI240,N185,1,normal,F,HE,0.0
NI240,N185,1,normal,G,cMET,0.0
NI240,N185,1,normal,G,HE,0.0
NI240,N230,1,tumour,A,cMET,1.0
NI240,N230,1,tumour,A,HE,0.0
NI240,N230,1,tumour,B,cMET,0.0
NI240,N230,1,invasive front,D,cMET,0.0
NI240,N230,1,invasive front,D,HE,3.0
NI240,N230,1,normal,E,cMET,2.0
NI240,N230,1,normal,E,HE,0.0
NI240,N230,1,normal,F,cMET,0.0
NI240,N230,1,normal,F,HE,0.0
NI240,N230,1,normal,G,cMET,0.0
NI240,N230,1,normal,G,HE,0.0
NI240,N247,1,tumour,A,cMET,2.0
NI240,N247,1,tumour,A,HE,0.0
NI240,N247,1,tumour,B,cMET,6.0
NI240,N247,1,tumour,B,HE,5.0
NI240,N247,1,tumour,C,cMET,4.0
NI240,N247,1,tumour,C,HE,3.0
NI240,N247,1,invasive front,D,cMET,0.0
NI240,N247,1,invasive front,D,HE,0.0
NI240,N247,1,normal,E,HE,0.0
NI240,N247,1,normal,F,cMET,0.0
NI240,N247,1,normal,F,HE,1.0
NI240,N247,1,normal,G,cMET,1.0
NI240,N247,1,normal,G,HE,0.0
NI240,N075,2,tumour,A,cMET,1.0
NI240,N075,2,tumour,A,HE,2.0
NI240,N075,2,tumour,B,cMET,1.0
NI240,N075,2,tumour,B,HE,5.0
NI240,N075,2,tumour,C,cMET,4.0
NI240,N075,2,tumour,C,HE,4.0
NI240,N075,2,invasive front,D,cMET,9.0
NI240,N075,2,invasive front,D,HE,5.0
NI240,N075,2,normal,E,cMET,1.0
NI240,N075,2,normal,E,HE,0.0
NI240,N075,2,normal,F,cMET,0.0
NI240,N075,2,normal,F,HE,0.0
NI240,N075,2,normal,G,cMET,1.0
NI240,N075,2,normal,G,HE,0.0
NI240,N078,2,tumour,A,cMET,2.0
NI240,N078,2,tumour,A,HE,2.0
NI240,N078,2,tumour,B,cMET,3.0
NI240,N078,2,tumour,B,HE,5.0
NI240,N078,2,tumour,C,cMET,4.0
NI240,N078,2,tumour,C,HE,0.0
NI240,N078,2,invasive front,D,cMET,0.0
NI240,N078,2,invasive front,D,HE,4.0
NI240,N078,2,normal,E,cMET,0.0
NI240,N078,2,normal,E,HE,0.0
NI240,N078,2,normal,F,cMET,0.0
NI240,N078,2,normal,F,HE,0.0
NI240,N078,2,normal,G,cMET,0.0
NI240,N078,2,normal,G,HE,0.0
NI240,N234,2,normal,E,HE,1.0
NI240,N234,2,normal,F,cMET,2.0
NI240,N234,2,normal,F,HE,0.0
NI240,N234,2,normal,G,cMET,0.0
NI240,N234,2,normal,G,HE,0.0
NI240,N046,1,tumour,B,cMET,0.0
NI240,N046,1,tumour,B,HE,2.0
NI240,N046,1,tumour,C,cMET,0.0
NI240,N046,1,tumour,C,HE,3.0
NI240,N046,1,invasive front,D,cMET,0.0
NI240,N046,1,invasive front,D,HE,3.0
NI240,N046,1,normal,E,HE,0.0
NI240,N046,1,normal,F,cMET,0.0
NI240,N046,1,normal,F,HE,0.0
NI240,N046,1,normal,G,cMET,0.0
NI240,N046,1,normal,G,HE,0.0
NI240,N170,1,tumour,A,cMET,0.0
NI240,N170,1,tumour,A,HE,0.0
NI240,N170,1,tumour,B,cMET,0.0
NI240,N170,1,tumour,B,HE,1.0
NI240,N170,1,tumour,C,cMET,4.0
NI240,N170,1,tumour,C,HE,3.0
NI240,N170,1,invasive front,D,cMET,0.0
NI240,N170,1,invasive front,D,HE,0.0
NI240,N170,1,normal,E,cMET,0.0
NI240,N170,1,normal,E,HE,1.0
NI240,N170,1,normal,F,cMET,0.0
NI240,N170,1,normal,F,HE,0.0
NI240,N170,1,normal,G,cMET,1.0
NI240,N170,1,normal,G,HE,1.0
NI240,N148,1,tumour,A,cMET,2.0
NI240,N148,1,tumour,A,HE,3.0
NI240,N148,1,tumour,B,cMET,0.0
NI240,N148,1,tumour,B,HE,0.0
NI240,N148,1,tumour,C,cMET,2.0
NI240,N148,1,tumour,C,HE,0.0
NI240,N148,1,invasive front,D,cMET,0.0
NI240,N148,1,invasive front,D,HE,1.0
NI240,N148,1,normal,E,cMET,0.0
NI240,N148,1,normal,E,HE,0.0
NI240,N148,1,normal,F,cMET,0.0
NI240,N148,1,normal,F,HE,0.0
NI240,N148,1,normal,G,cMET,0.0
NI240,N148,1,normal,G,HE,0.0
NI240,N149,1,tumour,A,cMET,6.0
NI240,N149,1,tumour,A,HE,6.0
NI240,N149,1,tumour,B,cMET,3.0
NI240,N149,1,tumour,B,HE,6.0
NI240,N149,1,tumour,C,cMET,6.0
NI240,N149,1,tumour,C,HE,8.0
NI240,N149,1,invasive front,D,cMET,0.0
NI240,N149,1,invasive front,D,HE,0.0
NI240,N149,1,normal,E,cMET,0.0
NI240,N149,1,normal,E,HE,0.0
NI240,N149,1,normal,F,cMET,0.0
NI240,N149,1,normal,F,HE,3.0
NI240,N149,1,normal,G,cMET,0.0
NI240,N149,1,normal,G,HE,0.0
NI240,N195,1,tumour,B,cMET,0.0
NI240,N195,1,tumour,B,HE,0.0
NI240,N195,1,tumour,C,cMET,0.0
NI240,N195,1,tumour,C,HE,2.0
NI240,N195,1,invasive front,D,cMET,0.0
NI240,N195,1,invasive front,D,HE,0.0
NI240,N195,1,normal,E,cMET,0.0
NI240,N195,1,normal,E,HE,0.0
NI240,N195,1,normal,F,cMET,0.0
NI240,N195,1,normal,F,HE,1.0
NI240,N195,1,normal,G,cMET,0.0
NI240,N195,1,normal,G,HE,1.0
NI240,N172,1,tumour,A,cMET,0.0
NI240,N172,1,tumour,A,HE,0.0
NI240,N172,1,tumour,B,cMET,0.0
NI240,N172,1,tumour,B,HE,0.0
NI240,N172,1,tumour,C,cMET,1.0
NI240,N172,1,tumour,C,HE,2.0
NI240,N172,1,invasive front,D,cMET,0.0
NI240,N172,1,invasive front,D,HE,0.0
NI240,N172,1,normal,E,cMET,0.0
NI240,N172,1,normal,E,HE,0.0
NI240,N172,1,normal,F,cMET,0.0
NI240,N172,1,normal,F,HE,0.0
NI240,N172,1,normal,G,cMET,0.0
NI240,N172,1,normal,G,HE,0.0
NI240,N079,2,tumour,A,cMET,3.0
NI240,N079,2,tumour,A,HE,5.0
NI240,N079,2,tumour,B,cMET,5.0
NI240,N079,2,tumour,B,HE,4.0
NI240,N079,2,tumour,C,cMET,10.0
NI240,N079,2,tumour,C,HE,11.0
NI240,N079,2,invasive front,D,cMET,1.0
NI240,N079,2,invasive front,D,HE,1.0
NI240,N079,2,normal,E,cMET,0.0
NI240,N079,2,normal,E,HE,0.0
NI240,N079,2,normal,F,cMET,0.0
NI240,N079,2,normal,F,HE,1.0
NI240,N079,2,normal,G,cMET,0.0
NI240,N079,2,normal,G,HE,1.0
NI240,N250,1,tumour,A,cMET,0.0
NI240,N250,1,tumour,A,HE,0.0
NI240,N250,1,tumour,B,cMET,7.0
NI240,N250,1,tumour,B,HE,10.0
NI240,N250,1,tumour,C,cMET,0.0
NI240,N250,1,tumour,C,HE,0.0
NI240,N250,1,invasive front,D,cMET,0.0
NI240,N250,1,invasive front,D,HE,0.0
NI240,N250,1,normal,E,cMET,2.0
NI240,N250,1,normal,E,HE,0.0
NI240,N250,1,normal,F,cMET,3.0
NI240,N250,1,normal,F,HE,1.0
NI240,N250,1,normal,G,cMET,0.0
NI240,N250,1,normal,G,HE,0.0
NI240,N131,1,tumour,A,cMET,6.0
NI240,N131,1,tumour,A,HE,7.0
NI240,N131,1,tumour,B,cMET,1.0
NI240,N131,1,tumour,B,HE,4.0
NI240,N131,1,tumour,C,cMET,2.0
NI240,N131,1,tumour,C,HE,4.0
NI240,N131,1,invasive front,D,cMET,1.0
NI240,N131,1,invasive front,D,HE,0.0
NI240,N131,1,normal,E,cMET,1.0
NI240,N131,1,normal,E,HE,1.0
NI240,N131,1,normal,F,cMET,0.0
NI240,N131,1,normal,F,HE,0.0
NI240,N131,1,normal,G,cMET,0.0
NI240,N131,1,normal,G,HE,0.0
NI240,N153,1,tumour,A,cMET,0.0
NI240,N153,1,tumour,A,HE,0.0
NI240,N153,1,tumour,B,cMET,3.0
NI240,N153,1,tumour,B,HE,5.0
NI240,N153,1,invasive front,D,cMET,1.0
NI240,N153,1,invasive front,D,HE,2.0
NI240,N153,1,normal,E,cMET,2.0
NI240,N153,1,normal,E,HE,0.0
NI240,N153,1,normal,F,cMET,0.0
NI240,N153,1,normal,F,HE,6.0
NI240,N153,1,normal,G,cMET,0.0
NI240,N153,1,normal,G,HE,0.0
NI240,N008,2,tumour,A,cMET,0.0
NI240,N008,2,tumour,A,HE,0.0
NI240,N008,2,tumour,B,cMET,1.0
NI240,N008,2,tumour,B,HE,1.0
NI240,N008,2,tumour,C,cMET,5.0
NI240,N008,2,tumour,C,HE,2.0
NI240,N008,2,invasive front,D,cMET,0.0
NI240,N008,2,invasive front,D,HE,0.0
NI240,N008,2,normal,E,cMET,0.0
NI240,N008,2,normal,E,HE,0.0
NI240,N008,2,normal,F,cMET,0.0
NI240,N008,2,normal,F,HE,0.0
NI240,N008,2,normal,G,cMET,0.0
NI240,N008,2,normal,G,HE,0.0
NI240,N010,2,tumour,A,cMET,4.0
NI240,N010,2,tumour,A,HE,4.0
NI240,N010,2,tumour,B,cMET,2.0
NI240,N010,2,tumour,B,HE,3.0
NI240,N010,2,tumour,C,cMET,0.0
NI240,N010,2,tumour,C,HE,0.0
NI240,N010,2,invasive front,D,cMET,2.0
NI240,N010,2,invasive front,D,HE,0.0
NI240,N010,2,normal,E,cMET,0.0
NI240,N010,2,normal,E,HE,0.0
NI240,N010,2,normal,F,cMET,0.0
NI240,N010,2,normal,F,HE,5.0
NI240,N010,2,normal,G,cMET,0.0
NI240,N010,2,normal,G,HE,3.0
NI240,N201,1,tumour,A,cMET,3.0
NI240,N201,1,tumour,A,HE,4.0
NI240,N201,1,tumour,B,HE,2.0
NI240,N201,1,tumour,C,cMET,1.0
NI240,N201,1,tumour,C,HE,0.0
NI240,N201,1,invasive front,D,cMET,0.0
NI240,N201,1,invasive front,D,HE,0.0
NI240,N201,1,normal,E,cMET,0.0
NI240,N201,1,normal,E,HE,1.0
NI240,N201,1,normal,F,cMET,0.0
NI240,N201,1,normal,F,HE,0.0
NI240,N174,1,tumour,A,cMET,1.0
NI240,N174,1,tumour,A,HE,0.0
NI240,N174,1,tumour,B,cMET,0.0
NI240,N174,1,tumour,B,HE,1.0
NI240,N174,1,tumour,C,cMET,0.0
NI240,N174,1,tumour,C,HE,0.0
NI240,N174,1,invasive front,D,cMET,0.0
NI240,N174,1,invasive front,D,HE,0.0
NI240,N174,1,normal,E,cMET,2.0
NI240,N174,1,normal,E,HE,1.0
NI240,N174,1,normal,F,HE,1.0
NI240,N174,1,normal,G,cMET,0.0
NI240,N174,1,normal,G,HE,1.0
NI240,N133,1,tumour,A,cMET,0.0
NI240,N133,1,tumour,A,HE,0.0
NI240,N133,1,tumour,B,cMET,0.0
NI240,N133,1,tumour,B,HE,0.0
NI240,N133,1,tumour,C,cMET,3.0
NI240,N133,1,tumour,C,HE,0.0
NI240,N133,1,invasive front,D,cMET,0.0
NI240,N133,1,invasive front,D,HE,4.0
NI240,N133,1,normal,F,cMET,1.0
NI240,N133,1,normal,F,HE,3.0
NI240,N133,1,normal,G,cMET,0.0
NI240,N133,1,normal,G,HE,0.0
NI240,N158,1,tumour,B,cMET,0.0
NI240,N158,1,tumour,B,HE,1.0
NI240,N158,1,tumour,C,cMET,0.0
NI240,N158,1,tumour,C,HE,0.0
NI240,N158,1,invasive front,D,cMET,4.0
NI240,N158,1,invasive front,D,HE,0.0
NI240,N158,1,normal,F,cMET,0.0
NI240,N158,1,normal,F,HE,0.0
NI240,N158,1,normal,G,cMET,0.0
NI240,N158,1,normal,G,HE,0.0
NI240,N051,1,tumour,A,cMET,0.0
NI240,N051,1,tumour,A,HE,0.0
NI240,N051,1,tumour,B,cMET,0.0
NI240,N051,1,tumour,B,HE,0.0
NI240,N051,1,tumour,C,cMET,0.0
NI240,N051,1,tumour,C,HE,0.0
NI240,N051,1,invasive front,D,cMET,0.0
NI240,N051,1,invasive front,D,HE,1.0
NI240,N051,1,normal,E,cMET,0.0
NI240,N051,1,normal,E,HE,0.0
NI240,N019,2,normal,E,cMET,0.0
NI240,N019,2,normal,E,HE,0.0
NI240,N019,2,normal,F,cMET,0.0
NI240,N019,2,normal,F,HE,1.0
NI240,N019,2,normal,G,cMET,0.0
NI240,N019,2,normal,G,HE,2.0
NI240,N031,1,tumour,A,HE,2.0
NI240,N031,1,tumour,B,cMET,0.0
NI240,N031,1,tumour,B,HE,0.0
NI240,N031,1,tumour,C,cMET,0.0
NI240,N031,1,tumour,C,HE,2.0
NI240,N031,1,invasive front,D,cMET,0.0
NI240,N031,1,invasive front,D,HE,0.0
NI240,N031,1,normal,E,cMET,2.0
NI240,N031,1,normal,E,HE,0.0
NI240,N031,1,normal,F,cMET,1.0
NI240,N031,1,normal,F,HE,4.0
NI240,N031,1,normal,G,cMET,0.0
NI240,N031,1,normal,G,HE,1.0
NI240,N038,2,tumour,A,cMET,0.0
NI240,N038,2,tumour,A,HE,0.0
NI240,N038,2,tumour,B,cMET,1.0
NI240,N038,2,tumour,B,HE,0.0
NI240,N038,2,tumour,C,cMET,2.0
NI240,N038,2,tumour,C,HE,6.0
NI240,N038,2,invasive front,D,cMET,0.0
NI240,N038,2,invasive front,D,HE,2.0
NI240,N038,2,normal,E,cMET,0.0
NI240,N038,2,normal,E,HE,0.0
NI240,N038,2,normal,F,cMET,1.0
NI240,N038,2,normal,F,HE,1.0
NI240,N038,2,normal,G,cMET,1.0
NI240,N038,2,normal,G,HE,1.0
NI240,N004,2,tumour,A,cMET,0.0
NI240,N004,2,tumour,A,HE,0.0
NI240,N004,2,tumour,B,cMET,4.0
NI240,N004,2,tumour,B,HE,3.0
NI240,N004,2,tumour,C,cMET,3.0
NI240,N004,2,tumour,C,HE,0.0
NI240,N004,2,invasive front,D,cMET,2.0
NI240,N004,2,invasive front,D,HE,1.0
NI240,N142,1,tumour,A,cMET,11.0
NI240,N142,1,tumour,A,HE,17.0
NI240,N142,1,tumour,B,cMET,8.0
NI240,N142,1,tumour,B,HE,15.0
NI240,N142,1,tumour,C,cMET,11.0
NI240,N142,1,tumour,C,HE,10.0
NI240,N142,1,invasive front,D,cMET,11.0
NI240,N142,1,invasive front,D,HE,10.0
NI240,N142,1,normal,E,cMET,0.0
NI240,N142,1,normal,E,HE,0.0
NI240,N142,1,normal,F,cMET,1.0
NI240,N142,1,normal,F,HE,1.0
NI240,N142,1,normal,G,cMET,0.0
NI240,N142,1,normal,G,HE,0.0
NI240,N003,2,tumour,A,cMET,2.0
NI240,N003,2,tumour,A,HE,5.0
NI240,N003,2,tumour,B,cMET,0.0
NI240,N003,2,tumour,B,HE,5.0
NI240,N003,2,tumour,C,cMET,1.0
NI240,N003,2,tumour,C,HE,3.0
NI240,N003,2,invasive front,D,cMET,2.0
NI240,N003,2,invasive front,D,HE,0.0
NI240,N003,2,normal,E,cMET,0.0
NI240,N003,2,normal,E,HE,0.0
NI240,N003,2,normal,F,cMET,0.0
NI240,N003,2,normal,F,HE,4.0
NI240,N003,2,normal,G,cMET,0.0
NI240,N003,2,normal,G,HE,0.0
NI240,N029,2,tumour,A,cMET,2.0
NI240,N029,2,tumour,A,HE,0.0
NI240,N029,2,tumour,B,cMET,2.0
NI240,N029,2,tumour,B,HE,1.0
NI240,N029,2,tumour,C,cMET,0.0
NI240,N029,2,tumour,C,HE,4.0
NI240,N029,2,invasive front,D,cMET,0.0
NI240,N029,2,invasive front,D,HE,3.0
NI240,N029,2,normal,E,HE,0.0
NI240,N029,2,normal,F,cMET,0.0
NI240,N029,2,normal,F,HE,0.0
NI240,N029,2,normal,G,cMET,0.0
NI240,N029,2,normal,G,HE,0.0
NI240,N018,2,tumour,A,cMET,3.0
NI240,N018,2,tumour,A,HE,3.0
NI240,N018,2,tumour,B,cMET,0.0
NI240,N018,2,tumour,B,HE,0.0
NI240,N018,2,tumour,C,cMET,0.0
NI240,N018,2,tumour,C,HE,0.0
NI240,N018,2,invasive front,D,cMET,1.0
NI240,N018,2,invasive front,D,HE,1.0
NI240,N018,2,normal,F,cMET,0.0
NI240,N018,2,normal,F,HE,0.0
NI240,N018,2,normal,G,cMET,0.0
NI240,N018,2,normal,G,HE,1.0
NI240,N129,2,normal,E,cMET,0.0
NI240,N129,2,normal,E,HE,0.0
NI240,N129,2,normal,F,cMET,0.0
NI240,N129,2,normal,F,HE,0.0
NI240,N129,2,normal,G,cMET,0.0
NI240,N129,2,normal,G,HE,2.0
NI240,N127,1,tumour,A,cMET,1.0
NI240,N127,1,tumour,A,HE,1.0
NI240,N127,1,tumour,B,cMET,0.0
NI240,N127,1,tumour,B,HE,0.0
NI240,N127,1,tumour,C,cMET,0.0
NI240,N127,1,tumour,C,HE,0.0
NI240,N127,1,invasive front,D,cMET,1.0
NI240,N127,1,invasive front,D,HE,1.0
NI240,N127,1,normal,E,cMET,0.0
NI240,N127,1,normal,E,HE,0.0
NI240,N127,1,normal,F,cMET,0.0
NI240,N127,1,normal,F,HE,0.0
NI240,N002,2,tumour,B,cMET,1.0
NI240,N002,2,tumour,B,HE,0.0
NI240,N002,2,tumour,C,cMET,0.0
NI240,N002,2,tumour,C,HE,0.0
NI240,N002,2,invasive front,D,cMET,0.0
NI240,N002,2,invasive front,D,HE,0.0
NI240,N002,2,normal,E,HE,0.0
NI240,N128,1,tumour,A,cMET,3.0
NI240,N128,1,tumour,A,HE,4.0
NI240,N128,1,tumour,B,cMET,0.0
NI240,N128,1,tumour,B,HE,2.0
NI240,N128,1,tumour,C,cMET,2.0
NI240,N128,1,tumour,C,HE,2.0
NI240,N128,1,invasive front,D,cMET,0.0
NI240,N128,1,invasive front,D,HE,0.0
NI240,N128,1,normal,E,cMET,0.0
NI240,N128,1,normal,E,HE,0.0
NI240,N128,1,normal,F,cMET,0.0
NI240,N128,1,normal,F,HE,0.0
NI240,N128,1,normal,G,cMET,0.0
NI240,N128,1,normal,G,HE,0.0
NI240,N189,1,tumour,A,cMET,5.0
NI240,N189,1,tumour,A,HE,3.0
NI240,N189,1,tumour,B,cMET,2.0
NI240,N189,1,tumour,B,HE,1.0
NI240,N189,1,invasive front,D,cMET,2.0
NI240,N189,1,invasive front,D,HE,0.0
NI240,N189,1,normal,E,cMET,0.0
NI240,N189,1,normal,E,HE,0.0
NI240,N189,1,normal,F,cMET,0.0
NI240,N189,1,normal,F,HE,0.0
NI240,N189,1,normal,G,cMET,0.0
NI240,N189,1,normal,G,HE,1.0
NI240,N005,2,tumour,A,cMET,1.0
NI240,N005,2,tumour,A,HE,0.0
NI240,N005,2,tumour,B,cMET,0.0
NI240,N005,2,tumour,B,HE,1.0
NI240,N005,2,tumour,C,cMET,1.0
NI240,N005,2,tumour,C,HE,0.0
NI240,N005,2,invasive front,D,cMET,1.0
NI240,N005,2,invasive front,D,HE,0.0
NI240,N005,2,normal,E,HE,0.0
NI240,N005,2,normal,F,cMET,1.0
NI240,N005,2,normal,F,HE,0.0
NI240,N130,1,tumour,A,cMET,0.0
NI240,N130,1,tumour,A,HE,0.0
NI240,N130,1,tumour,B,cMET,1.0
NI240,N130,1,tumour,B,HE,0.0
NI240,N130,1,tumour,C,cMET,1.0
NI240,N130,1,tumour,C,HE,2.0
NI240,N130,1,invasive front,D,cMET,1.0
NI240,N130,1,invasive front,D,HE,1.0
NI240,N130,1,normal,E,cMET,3.0
NI240,N130,1,normal,E,HE,1.0
NI240,N130,1,normal,F,cMET,1.0
NI240,N130,1,normal,F,HE,1.0
NI240,N130,1,normal,G,cMET,0.0
NI240,N130,1,normal,G,HE,0.0
NI240,N006,2,tumour,A,cMET,1.0
NI240,N006,2,tumour,A,HE,1.0
NI240,N006,2,tumour,B,cMET,0.0
NI240,N006,2,tumour,B,HE,0.0
NI240,N006,2,tumour,C,cMET,1.0
NI240,N006,2,tumour,C,HE,0.0
NI240,N006,2,normal,E,cMET,1.0
NI240,N006,2,normal,E,HE,0.0
NI240,N132,1,tumour,A,cMET,0.0
NI240,N132,1,tumour,A,HE,0.0
NI240,N132,1,tumour,B,cMET,0.0
NI240,N132,1,tumour,B,HE,0.0
NI240,N132,1,tumour,C,cMET,0.0
NI240,N132,1,tumour,C,HE,2.0
NI240,N132,1,invasive front,D,cMET,0.0
NI240,N132,1,invasive front,D,HE,0.0
NI240,N132,1,normal,E,cMET,0.0
NI240,N132,1,normal,E,HE,0.0
NI240,N132,1,normal,F,cMET,0.0
NI240,N132,1,normal,F,HE,0.0
NI240,N007,2,tumour,A,cMET,1.0
NI240,N007,2,tumour,A,HE,3.0
NI240,N007,2,tumour,B,cMET,2.0
NI240,N007,2,tumour,B,HE,6.0
NI240,N007,2,normal,E,cMET,2.0
NI240,N007,2,normal,E,HE,0.0
NI240,N007,2,normal,F,cMET,1.0
NI240,N007,2,normal,F,HE,2.0
NI240,N007,2,normal,G,cMET,1.0
NI240,N007,2,normal,G,HE,1.0
NI240,N012,2,tumour,A,cMET,10.0
NI240,N012,2,tumour,A,HE,16.0
NI240,N012,2,tumour,B,cMET,6.0
NI240,N012,2,tumour,B,HE,9.0
NI240,N012,2,tumour,C,cMET,18.0
NI240,N012,2,tumour,C,HE,9.0
NI240,N012,2,invasive front,D,cMET,11.0
NI240,N012,2,invasive front,D,HE,20.0
NI240,N012,2,normal,E,cMET,0.0
NI240,N012,2,normal,E,HE,0.0
NI240,N012,2,normal,F,cMET,0.0
NI240,N012,2,normal,F,HE,0.0
NI240,N135,1,tumour,A,cMET,0.0
NI240,N135,1,tumour,A,HE,0.0
NI240,N135,1,tumour,B,cMET,0.0
NI240,N135,1,tumour,B,HE,0.0
NI240,N135,1,tumour,C,cMET,0.0
NI240,N135,1,tumour,C,HE,0.0
NI240,N135,1,invasive front,D,cMET,0.0
NI240,N135,1,invasive front,D,HE,1.0
NI240,N135,1,normal,E,cMET,1.0
NI240,N135,1,normal,E,HE,0.0
NI240,N135,1,normal,F,cMET,1.0
NI240,N135,1,normal,F,HE,0.0
NI240,N135,1,normal,G,cMET,0.0
NI240,N135,1,normal,G,HE,0.0
NI240,N011,2,tumour,A,cMET,4.0
NI240,N011,2,tumour,A,HE,3.0
NI240,N011,2,tumour,B,cMET,1.0
NI240,N011,2,tumour,B,HE,5.0
NI240,N011,2,tumour,C,cMET,2.0
NI240,N011,2,tumour,C,HE,0.0
NI240,N011,2,normal,E,cMET,0.0
NI240,N011,2,normal,E,HE,0.0
NI240,N011,2,normal,F,cMET,0.0
NI240,N011,2,normal,F,HE,0.0
NI240,N011,2,normal,G,cMET,0.0
NI240,N011,2,normal,G,HE,0.0
NI240,N024,2,tumour,A,cMET,0.0
NI240,N024,2,tumour,A,HE,0.0
NI240,N024,2,tumour,B,cMET,0.0
NI240,N024,2,tumour,B,HE,0.0
NI240,N024,2,tumour,C,cMET,2.0
NI240,N024,2,tumour,C,HE,1.0
NI240,N024,2,invasive front,D,cMET,0.0
NI240,N024,2,invasive front,D,HE,0.0
NI240,N024,2,normal,E,cMET,0.0
NI240,N024,2,normal,E,HE,0.0
NI240,N024,2,normal,F,cMET,0.0
NI240,N024,2,normal,F,HE,0.0
NI240,N024,2,normal,G,cMET,0.0
NI240,N024,2,normal,G,HE,0.0
NI240,N013,2,tumour,A,cMET,0.0
NI240,N013,2,tumour,A,HE,1.0
NI240,N013,2,tumour,B,cMET,0.0
NI240,N013,2,tumour,B,HE,1.0
NI240,N013,2,tumour,C,cMET,2.0
NI240,N013,2,tumour,C,HE,2.0
NI240,N013,2,invasive front,D,cMET,0.0
NI240,N013,2,invasive front,D,HE,2.0
NI240,N013,2,normal,E,cMET,0.0
NI240,N013,2,normal,E,HE,0.0
NI240,N134,1,tumour,A,cMET,0.0
NI240,N134,1,tumour,A,HE,0.0
NI240,N134,1,tumour,B,cMET,0.0
NI240,N134,1,tumour,B,HE,0.0
NI240,N134,1,tumour,C,cMET,0.0
NI240,N134,1,tumour,C,HE,0.0
NI240,N134,1,invasive front,D,cMET,0.0
NI240,N134,1,invasive front,D,HE,0.0
NI240,N134,1,normal,E,cMET,0.0
NI240,N134,1,normal,E,HE,0.0
NI240,N134,1,normal,F,cMET,1.0
NI240,N134,1,normal,F,HE,0.0
NI240,N134,1,normal,G,cMET,0.0
NI240,N134,1,normal,G,HE,0.0
NI240,N224,1,tumour,A,cMET,4.0
NI240,N224,1,tumour,A,HE,2.0
NI240,N224,1,tumour,B,cMET,3.0
NI240,N224,1,tumour,B,HE,2.0
NI240,N224,1,tumour,C,cMET,4.0
NI240,N224,1,tumour,C,HE,2.0
NI240,N224,1,invasive front,D,cMET,0.0
NI240,N224,1,invasive front,D,HE,0.0
NI240,N224,1,normal,F,cMET,0.0
NI240,N224,1,normal,F,HE,0.0
NI240,N224,1,normal,G,cMET,0.0
NI240,N224,1,normal,G,HE,0.0
NI240,N190,1,tumour,A,cMET,4.0
NI240,N190,1,tumour,A,HE,0.0
NI240,N190,1,tumour,B,cMET,1.0
NI240,N190,1,tumour,B,HE,4.0
NI240,N190,1,tumour,C,cMET,1.0
NI240,N190,1,tumour,C,HE,2.0
NI240,N190,1,invasive front,D,cMET,0.0
NI240,N190,1,invasive front,D,HE,0.0
NI240,N190,1,normal,E,cMET,0.0
NI240,N190,1,normal,E,HE,0.0
NI240,N190,1,normal,F,cMET,0.0
NI240,N190,1,normal,F,HE,0.0
NI240,N190,1,normal,G,cMET,0.0
NI240,N190,1,normal,G,HE,0.0
NI240,N015,1,tumour,A,cMET,1.0
NI240,N015,1,tumour,A,HE,1.0
NI240,N015,1,tumour,B,cMET,0.0
NI240,N015,1,tumour,B,HE,3.0
NI240,N015,1,tumour,C,cMET,1.0
NI240,N015,1,tumour,C,HE,0.0
NI240,N015,1,invasive front,D,cMET,0.0
NI240,N015,1,invasive front,D,HE,0.0
NI240,N015,1,normal,E,cMET,0.0
NI240,N015,1,normal,E,HE,0.0
NI240,N014,2,tumour,A,cMET,3.0
NI240,N014,2,tumour,A,HE,6.0
NI240,N014,2,tumour,B,cMET,1.0
NI240,N014,2,tumour,B,HE,2.0
NI240,N014,2,tumour,C,cMET,1.0
NI240,N014,2,tumour,C,HE,1.0
NI240,N014,2,invasive front,D,cMET,3.0
NI240,N014,2,invasive front,D,HE,0.0
NI240,N014,2,normal,E,cMET,0.0
NI240,N014,2,normal,E,HE,0.0
NI240,N014,2,normal,F,cMET,0.0
NI240,N014,2,normal,F,HE,0.0
NI240,N014,2,normal,G,cMET,0.0
NI240,N014,2,normal,G,HE,0.0
NI240,N225,1,tumour,A,cMET,0.0
NI240,N225,1,tumour,A,HE,0.0
NI240,N225,1,tumour,B,cMET,0.0
NI240,N225,1,tumour,B,HE,5.0
NI240,N225,1,tumour,C,cMET,0.0
NI240,N225,1,tumour,C,HE,0.0
NI240,N225,1,invasive front,D,cMET,0.0
NI240,N225,1,invasive front,D,HE,1.0
NI240,N225,1,normal,E,cMET,0.0
NI240,N225,1,normal,E,HE,0.0
NI240,N225,1,normal,G,cMET,0.0
NI240,N225,1,normal,G,HE,0.0
NI240,N020,2,tumour,A,cMET,2.0
NI240,N020,2,tumour,A,HE,4.0
NI240,N020,2,tumour,B,cMET,6.0
NI240,N020,2,tumour,B,HE,11.0
NI240,N020,2,tumour,C,cMET,3.0
NI240,N020,2,tumour,C,HE,2.0
NI240,N020,2,invasive front,D,cMET,10.0
NI240,N020,2,invasive front,D,HE,5.0
NI240,N020,2,normal,E,cMET,0.0
NI240,N020,2,normal,E,HE,0.0
NI240,N020,2,normal,F,cMET,1.0
NI240,N020,2,normal,F,HE,0.0
NI240,N020,2,normal,G,cMET,0.0
NI240,N020,2,normal,G,HE,0.0
NI240,N227,1,tumour,A,cMET,0.0
NI240,N227,1,tumour,A,HE,0.0
NI240,N227,1,tumour,B,cMET,0.0
NI240,N227,1,tumour,B,HE,0.0
NI240,N227,1,tumour,C,cMET,3.0
NI240,N227,1,tumour,C,HE,6.0
NI240,N227,1,invasive front,D,cMET,0.0
NI240,N227,1,invasive front,D,HE,0.0
NI240,N227,1,normal,E,cMET,0.0
NI240,N227,1,normal,E,HE,0.0
NI240,N227,1,normal,F,cMET,0.0
NI240,N227,1,normal,F,HE,1.0
NI240,N227,1,normal,G,cMET,0.0
NI240,N227,1,normal,G,HE,0.0
NI240,N044,2,tumour,A,cMET,2.0
NI240,N044,2,tumour,A,HE,0.0
NI240,N044,2,tumour,B,cMET,1.0
NI240,N044,2,tumour,B,HE,3.0
NI240,N044,2,tumour,C,cMET,0.0
NI240,N044,2,tumour,C,HE,1.0
NI240,N044,2,invasive front,D,cMET,8.0
NI240,N044,2,invasive front,D,HE,7.0
NI240,N021,2,tumour,A,cMET,6.0
NI240,N021,2,tumour,A,HE,4.0
NI240,N021,2,tumour,B,cMET,1.0
NI240,N021,2,tumour,B,HE,1.0
NI240,N021,2,tumour,C,cMET,2.0
NI240,N021,2,tumour,C,HE,2.0
NI240,N021,2,invasive front,D,cMET,2.0
NI240,N021,2,invasive front,D,HE,1.0
NI240,N021,2,normal,E,cMET,0.0
NI240,N021,2,normal,E,HE,0.0
NI240,N021,2,normal,F,cMET,0.0
NI240,N021,2,normal,F,HE,0.0
NI240,N021,2,normal,G,cMET,0.0
NI240,N021,2,normal,G,HE,0.0
NI240,N136,1,tumour,A,cMET,1.0
NI240,N136,1,tumour,A,HE,1.0
NI240,N136,1,tumour,B,cMET,0.0
NI240,N136,1,tumour,B,HE,0.0
NI240,N136,1,tumour,C,cMET,1.0
NI240,N136,1,tumour,C,HE,2.0
NI240,N136,1,invasive front,D,cMET,1.0
NI240,N136,1,invasive front,D,HE,0.0
NI240,N136,1,normal,E,cMET,0.0
NI240,N136,1,normal,E,HE,0.0
NI240,N136,1,normal,G,cMET,0.0
NI240,N136,1,normal,G,HE,0.0
NI240,N023,2,tumour,A,cMET,4.0
NI240,N023,2,tumour,A,HE,3.0
NI240,N023,2,tumour,B,cMET,6.0
NI240,N023,2,tumour,B,HE,5.0
NI240,N023,2,invasive front,D,cMET,0.0
NI240,N023,2,invasive front,D,HE,3.0
NI240,N028,2,tumour,A,cMET,1.0
NI240,N028,2,tumour,A,HE,2.0
NI240,N028,2,tumour,B,cMET,0.0
NI240,N028,2,tumour,B,HE,2.0
NI240,N028,2,tumour,C,cMET,1.0
NI240,N028,2,tumour,C,HE,2.0
NI240,N138,2,normal,F,cMET,0.0
NI240,N138,2,normal,F,HE,0.0
NI240,N137,1,tumour,A,cMET,2.0
NI240,N137,1,tumour,A,HE,0.0
NI240,N137,1,tumour,B,cMET,0.0
NI240,N137,1,tumour,B,HE,1.0
NI240,N137,1,tumour,C,cMET,4.0
NI240,N137,1,tumour,C,HE,15.0
NI240,N137,1,invasive front,D,cMET,4.0
NI240,N137,1,invasive front,D,HE,0.0
NI240,N137,1,normal,E,cMET,0.0
NI240,N137,1,normal,E,HE,0.0
NI240,N137,1,normal,F,cMET,3.0
NI240,N137,1,normal,F,HE,0.0
NI240,N137,1,normal,G,cMET,4.0
NI240,N137,1,normal,G,HE,0.0
NI240,N193,1,tumour,A,cMET,0.0
NI240,N193,1,tumour,A,HE,0.0
NI240,N193,1,tumour,B,cMET,0.0
NI240,N193,1,tumour,B,HE,0.0
NI240,N193,1,tumour,C,cMET,0.0
NI240,N193,1,tumour,C,HE,2.0
NI240,N193,1,invasive front,D,cMET,0.0
NI240,N193,1,invasive front,D,HE,0.0
NI240,N193,1,normal,E,cMET,0.0
NI240,N193,1,normal,E,HE,0.0
NI240,N193,1,normal,F,cMET,0.0
NI240,N193,1,normal,F,HE,0.0
NI240,N193,1,normal,G,cMET,0.0
NI240,N193,1,normal,G,HE,0.0
NI240,N040,2,tumour,A,cMET,0.0
NI240,N040,2,tumour,A,HE,0.0
NI240,N040,2,tumour,B,cMET,1.0
NI240,N040,2,tumour,B,HE,3.0
NI240,N040,2,tumour,C,cMET,1.0
NI240,N040,2,tumour,C,HE,3.0
NI240,N040,2,invasive front,D,cMET,0.0
NI240,N040,2,invasive front,D,HE,0.0
NI240,N040,2,normal,E,cMET,0.0
NI240,N040,2,normal,E,HE,0.0
NI240,N040,2,normal,F,cMET,0.0
NI240,N040,2,normal,F,HE,0.0
NI240,N040,2,normal,G,cMET,0.0
NI240,N040,2,normal,G,HE,0.0
NI240,N226,1,tumour,A,cMET,0.0
NI240,N226,1,tumour,A,HE,0.0
NI240,N226,1,tumour,B,cMET,2.0
NI240,N226,1,tumour,B,HE,0.0
NI240,N226,1,tumour,C,cMET,0.0
NI240,N226,1,tumour,C,HE,0.0
NI240,N226,1,invasive front,D,cMET,0.0
NI240,N226,1,invasive front,D,HE,1.0
NI240,N226,1,normal,E,cMET,0.0
NI240,N226,1,normal,E,HE,0.0
NI240,N226,1,normal,F,cMET,0.0
NI240,N226,1,normal,F,HE,0.0
NI240,N226,1,normal,G,cMET,0.0
NI240,N226,1,normal,G,HE,0.0
NI240,N032,2,tumour,A,cMET,0.0
NI240,N032,2,tumour,A,HE,0.0
NI240,N032,2,tumour,B,cMET,0.0
NI240,N032,2,tumour,B,HE,1.0
NI240,N032,2,tumour,C,cMET,2.0
NI240,N032,2,tumour,C,HE,0.0
NI240,N032,2,invasive front,D,cMET,0.0
NI240,N032,2,invasive front,D,HE,0.0
NI240,N032,2,normal,E,cMET,1.0
NI240,N032,2,normal,E,HE,1.0
NI240,N032,2,normal,F,cMET,0.0
NI240,N032,2,normal,F,HE,0.0
NI240,N041,2,tumour,A,cMET,0.0
NI240,N041,2,tumour,A,HE,0.0
NI240,N041,2,tumour,B,cMET,0.0
NI240,N041,2,tumour,B,HE,0.0
NI240,N041,2,tumour,C,cMET,6.0
NI240,N041,2,tumour,C,HE,1.0
NI240,N041,2,invasive front,D,cMET,2.0
NI240,N041,2,invasive front,D,HE,0.0
NI240,N041,2,normal,E,cMET,1.0
NI240,N041,2,normal,E,HE,1.0
NI240,N041,2,normal,F,cMET,0.0
NI240,N041,2,normal,F,HE,0.0
NI240,N035,2,tumour,A,cMET,1.0
NI240,N035,2,tumour,A,HE,3.0
NI240,N035,2,tumour,B,cMET,1.0
NI240,N035,2,tumour,B,HE,2.0
NI240,N035,2,tumour,C,cMET,1.0
NI240,N035,2,tumour,C,HE,1.0
NI240,N035,2,invasive front,D,cMET,3.0
NI240,N035,2,invasive front,D,HE,5.0
NI240,N035,2,normal,E,cMET,0.0
NI240,N035,2,normal,E,HE,0.0
NI240,N035,2,normal,F,cMET,0.0
NI240,N035,2,normal,F,HE,0.0
NI240,N035,2,normal,G,cMET,0.0
NI240,N035,2,normal,G,HE,0.0
NI240,N145,1,tumour,A,cMET,0.0
NI240,N145,1,tumour,A,HE,0.0
NI240,N145,1,tumour,B,cMET,0.0
NI240,N145,1,tumour,B,HE,0.0
NI240,N145,1,tumour,C,cMET,0.0
NI240,N145,1,tumour,C,HE,0.0
NI240,N145,1,invasive front,D,cMET,0.0
NI240,N145,1,invasive front,D,HE,0.0
NI240,N145,1,normal,E,cMET,0.0
NI240,N145,1,normal,E,HE,0.0
NI240,N145,1,normal,F,cMET,0.0
NI240,N145,1,normal,F,HE,0.0
NI240,N144,1,tumour,A,cMET,3.0
NI240,N144,1,tumour,A,HE,2.0
NI240,N144,1,tumour,B,cMET,1.0
NI240,N144,1,tumour,B,HE,0.0
NI240,N144,1,tumour,C,cMET,3.0
NI240,N144,1,tumour,C,HE,0.0
NI240,N144,1,invasive front,D,cMET,0.0
NI240,N144,1,invasive front,D,HE,1.0
NI240,N144,1,normal,F,cMET,2.0
NI240,N144,1,normal,F,HE,5.0
NI240,N144,1,normal,G,cMET,0.0
NI240,N144,1,normal,G,HE,0.0
NI240,N196,1,tumour,A,cMET,0.0
NI240,N196,1,tumour,A,HE,0.0
NI240,N196,1,tumour,B,cMET,0.0
NI240,N196,1,tumour,B,HE,0.0
NI240,N196,1,tumour,C,cMET,5.0
NI240,N196,1,tumour,C,HE,0.0
NI240,N196,1,invasive front,D,cMET,0.0
NI240,N196,1,invasive front,D,HE,0.0
NI240,N196,1,normal,F,cMET,0.0
NI240,N196,1,normal,F,HE,0.0
NI240,N196,1,normal,G,cMET,0.0
NI240,N196,1,normal,G,HE,0.0
NI240,N034,2,tumour,A,cMET,0.0
NI240,N034,2,tumour,A,HE,0.0
NI240,N034,2,tumour,B,cMET,0.0
NI240,N034,2,tumour,B,HE,1.0
NI240,N034,2,tumour,C,cMET,3.0
NI240,N034,2,tumour,C,HE,2.0
NI240,N034,2,invasive front,D,cMET,0.0
NI240,N034,2,invasive front,D,HE,0.0
NI240,N034,2,normal,E,cMET,0.0
NI240,N034,2,normal,E,HE,0.0
NI240,N034,2,normal,F,cMET,0.0
NI240,N034,2,normal,F,HE,0.0
NI240,N033,2,tumour,A,cMET,0.0
NI240,N033,2,tumour,B,cMET,1.0
NI240,N033,2,tumour,B,HE,1.0
NI240,N033,2,tumour,C,cMET,0.0
NI240,N033,2,tumour,C,HE,3.0
NI240,N033,2,invasive front,D,cMET,3.0
NI240,N033,2,invasive front,D,HE,0.0
NI240,N033,2,normal,F,HE,0.0
NI240,N033,2,normal,G,cMET,0.0
NI240,N033,2,normal,G,HE,1.0
NI240,N036,2,tumour,A,cMET,0.0
NI240,N036,2,tumour,A,HE,1.0
NI240,N036,2,tumour,B,cMET,1.0
NI240,N036,2,tumour,B,HE,0.0
NI240,N036,2,tumour,C,cMET,3.0
NI240,N036,2,tumour,C,HE,0.0
NI240,N036,2,invasive front,D,cMET,5.0
NI240,N036,2,invasive front,D,HE,3.0
NI240,N036,2,normal,E,cMET,0.0
NI240,N036,2,normal,E,HE,0.0
NI240,N036,2,normal,F,cMET,0.0
NI240,N036,2,normal,F,HE,0.0
NI240,N036,2,normal,G,cMET,0.0
NI240,N036,2,normal,G,HE,0.0
NI240,N037,2,tumour,A,cMET,0.0
NI240,N037,2,tumour,A,HE,1.0
NI240,N037,2,tumour,B,cMET,0.0
NI240,N037,2,tumour,B,HE,1.0
NI240,N037,2,tumour,C,cMET,0.0
NI240,N037,2,tumour,C,HE,0.0
NI240,N037,2,invasive front,D,cMET,1.0
NI240,N037,2,invasive front,D,HE,0.0
NI240,N039,2,normal,E,cMET,0.0
NI240,N039,2,normal,E,HE,0.0
NI240,N039,2,normal,F,cMET,2.0
NI240,N039,2,normal,F,HE,2.0
NI240,N039,2,normal,G,cMET,1.0
NI240,N039,2,normal,G,HE,1.0
NI240,N141,1,tumour,A,cMET,1.0
NI240,N141,1,tumour,A,HE,2.0
NI240,N141,1,tumour,B,cMET,1.0
NI240,N141,1,tumour,B,HE,1.0
NI240,N141,1,tumour,C,cMET,0.0
NI240,N141,1,tumour,C,HE,3.0
NI240,N141,1,invasive front,D,cMET,4.0
NI240,N141,1,invasive front,D,HE,2.0
NI240,N141,1,normal,E,cMET,0.0
NI240,N141,1,normal,E,HE,0.0
NI240,N141,1,normal,F,cMET,0.0
NI240,N141,1,normal,F,HE,0.0
NI240,N141,1,normal,G,cMET,1.0
NI240,N141,1,normal,G,HE,1.0
NI240,N228,1,tumour,A,HE,0.0
NI240,N228,1,tumour,B,cMET,0.0
NI240,N228,1,tumour,B,HE,2.0
NI240,N228,1,tumour,C,cMET,3.0
NI240,N228,1,tumour,C,HE,4.0
NI240,N228,1,invasive front,D,cMET,0.0
NI240,N228,1,invasive front,D,HE,1.0
NI240,N228,1,normal,E,cMET,0.0
NI240,N228,1,normal,E,HE,0.0
NI240,N228,1,normal,F,cMET,0.0
NI240,N228,1,normal,F,HE,0.0
NI240,N228,1,normal,G,cMET,0.0
NI240,N228,1,normal,G,HE,0.0
NI240,N143,1,tumour,A,cMET,6.0
NI240,N143,1,tumour,A,HE,6.0
NI240,N143,1,tumour,B,cMET,12.0
NI240,N143,1,tumour,B,HE,18.0
NI240,N143,1,tumour,C,HE,4.0
NI240,N143,1,invasive front,D,cMET,2.0
NI240,N143,1,invasive front,D,HE,1.0
NI240,N143,1,normal,E,cMET,0.0
NI240,N143,1,normal,E,HE,0.0
NI240,N143,1,normal,F,cMET,0.0
NI240,N143,1,normal,F,HE,0.0
NI240,N143,1,normal,G,cMET,0.0
NI240,N143,1,normal,G,HE,0.0
NI240,N205,1,tumour,A,cMET,0.0
NI240,N205,1,tumour,A,HE,0.0
NI240,N205,1,tumour,B,cMET,0.0
NI240,N205,1,tumour,B,HE,4.0
NI240,N205,1,tumour,C,cMET,2.0
NI240,N205,1,tumour,C,HE,2.0
NI240,N205,1,invasive front,D,cMET,0.0
NI240,N205,1,invasive front,D,HE,0.0
NI240,N205,1,normal,E,cMET,0.0
NI240,N205,1,normal,E,HE,0.0
NI240,N205,1,normal,F,cMET,0.0
NI240,N205,1,normal,F,HE,0.0
NI240,N235,1,tumour,A,cMET,8.0
NI240,N235,1,tumour,A,HE,7.0
NI240,N235,1,tumour,B,cMET,8.0
NI240,N235,1,tumour,B,HE,11.0
NI240,N235,1,tumour,C,cMET,3.0
NI240,N235,1,tumour,C,HE,9.0
NI240,N235,1,invasive front,D,cMET,1.0
NI240,N235,1,invasive front,D,HE,0.0
NI240,N235,1,normal,E,cMET,0.0
NI240,N235,1,normal,E,HE,1.0
NI240,N235,1,normal,F,cMET,0.0
NI240,N235,1,normal,F,HE,0.0
NI240,N235,1,normal,G,cMET,0.0
NI240,N235,1,normal,G,HE,0.0
NI240,N049,2,tumour,A,cMET,2.0
NI240,N049,2,tumour,A,HE,1.0
NI240,N049,2,tumour,B,cMET,2.0
NI240,N049,2,tumour,B,HE,2.0
NI240,N049,2,tumour,C,cMET,2.0
NI240,N049,2,tumour,C,HE,2.0
NI240,N049,2,invasive front,D,cMET,1.0
NI240,N049,2,invasive front,D,HE,0.0
NI240,N049,2,normal,E,cMET,0.0
NI240,N049,2,normal,E,HE,0.0
NI240,N049,2,normal,F,cMET,0.0
NI240,N049,2,normal,F,HE,3.0
NI240,N049,2,normal,G,cMET,1.0
NI240,N049,2,normal,G,HE,0.0
NI240,N229,1,tumour,A,cMET,9.0
NI240,N229,1,tumour,A,HE,3.0
NI240,N229,1,tumour,B,cMET,4.0
NI240,N229,1,tumour,B,HE,3.0
NI240,N229,1,tumour,C,cMET,9.0
NI240,N229,1,tumour,C,HE,8.0
NI240,N229,1,invasive front,D,cMET,1.0
NI240,N229,1,invasive front,D,HE,0.0
NI240,N229,1,normal,E,cMET,0.0
NI240,N229,1,normal,E,HE,0.0
NI240,N229,1,normal,F,cMET,0.0
NI240,N229,1,normal,F,HE,1.0
NI240,N229,1,normal,G,cMET,0.0
NI240,N229,1,normal,G,HE,0.0
NI240,N146,1,tumour,A,cMET,0.0
NI240,N146,1,tumour,A,HE,0.0
NI240,N146,1,tumour,B,cMET,0.0
NI240,N146,1,tumour,B,HE,0.0
NI240,N146,1,tumour,C,cMET,0.0
NI240,N146,1,tumour,C,HE,0.0
NI240,N146,1,invasive front,D,cMET,1.0
NI240,N146,1,invasive front,D,HE,0.0
NI240,N198,1,tumour,A,cMET,1.0
NI240,N198,1,tumour,A,HE,0.0
NI240,N198,1,tumour,B,cMET,2.0
NI240,N198,1,tumour,B,HE,6.0
NI240,N198,1,tumour,C,cMET,1.0
NI240,N198,1,tumour,C,HE,3.0
NI240,N198,1,invasive front,D,cMET,0.0
NI240,N198,1,invasive front,D,HE,1.0
NI240,N198,1,normal,E,cMET,0.0
NI240,N198,1,normal,E,HE,0.0
NI240,N198,1,normal,F,cMET,0.0
NI240,N198,1,normal,F,HE,0.0
NI240,N198,1,normal,G,cMET,0.0
NI240,N198,1,normal,G,HE,0.0
NI240,N043,2,tumour,A,cMET,0.0
NI240,N043,2,tumour,A,HE,0.0
NI240,N043,2,tumour,B,cMET,14.0
NI240,N043,2,tumour,B,HE,9.0
NI240,N043,2,tumour,C,cMET,4.0
NI240,N043,2,tumour,C,HE,3.0
NI240,N043,2,invasive front,D,cMET,1.0
NI240,N043,2,invasive front,D,HE,1.0
NI240,N043,2,normal,E,HE,0.0
NI240,N043,2,normal,F,cMET,0.0
NI240,N043,2,normal,F,HE,0.0
NI240,N231,1,tumour,A,cMET,6.0
NI240,N231,1,tumour,A,HE,9.0
NI240,N231,1,tumour,B,HE,8.0
NI240,N231,1,tumour,C,cMET,1.0
NI240,N231,1,tumour,C,HE,7.0
NI240,N231,1,invasive front,D,cMET,0.0
NI240,N231,1,invasive front,D,HE,1.0
NI240,N231,1,normal,E,cMET,1.0
NI240,N231,1,normal,E,HE,5.0
NI240,N231,1,normal,F,cMET,0.0
NI240,N231,1,normal,F,HE,0.0
NI240,N231,1,normal,G,cMET,0.0
NI240,N231,1,normal,G,HE,0.0
NI240,N232,1,tumour,A,cMET,0.0
NI240,N232,1,tumour,A,HE,1.0
NI240,N232,1,tumour,B,cMET,0.0
NI240,N232,1,tumour,B,HE,0.0
NI240,N232,1,tumour,C,cMET,1.0
NI240,N232,1,tumour,C,HE,0.0
NI240,N232,1,invasive front,D,cMET,0.0
NI240,N232,1,invasive front,D,HE,1.0
NI240,N232,1,normal,F,cMET,1.0
NI240,N232,1,normal,F,HE,0.0
NI240,N232,1,normal,G,cMET,0.0
NI240,N232,1,normal,G,HE,0.0
NI240,N047,2,tumour,A,cMET,0.0
NI240,N047,2,tumour,A,HE,1.0
NI240,N047,2,tumour,B,cMET,0.0
NI240,N047,2,tumour,B,HE,0.0
NI240,N047,2,tumour,C,cMET,0.0
NI240,N047,2,tumour,C,HE,1.0
NI240,N047,2,invasive front,D,cMET,3.0
NI240,N047,2,invasive front,D,HE,1.0
NI240,N047,2,normal,E,cMET,0.0
NI240,N047,2,normal,E,HE,1.0
NI240,N047,2,normal,F,cMET,0.0
NI240,N047,2,normal,F,HE,0.0
NI240,N047,2,normal,G,cMET,0.0
NI240,N047,2,normal,G,HE,0.0
NI240,N203,1,tumour,A,cMET,0.0
NI240,N203,1,tumour,A,HE,0.0
NI240,N203,1,tumour,B,cMET,1.0
NI240,N203,1,tumour,B,HE,0.0
NI240,N203,1,tumour,C,cMET,0.0
NI240,N203,1,tumour,C,HE,0.0
NI240,N203,1,invasive front,D,cMET,0.0
NI240,N203,1,invasive front,D,HE,1.0
NI240,N203,1,normal,E,cMET,0.0
NI240,N203,1,normal,E,HE,0.0
NI240,N203,1,normal,F,cMET,0.0
NI240,N203,1,normal,F,HE,0.0
NI240,N203,1,normal,G,cMET,0.0
NI240,N203,1,normal,G,HE,0.0
NI240,N199,2,tumour,A,cMET,0.0
NI240,N199,2,tumour,A,HE,1.0
NI240,N199,2,normal,E,cMET,0.0
NI240,N199,2,normal,E,HE,1.0
NI240,N045,1,tumour,A,cMET,0.0
NI240,N045,1,tumour,A,HE,1.0
NI240,N045,1,tumour,B,cMET,0.0
NI240,N045,1,tumour,B,HE,0.0
NI240,N045,1,tumour,C,cMET,0.0
NI240,N045,1,tumour,C,HE,0.0
NI240,N045,1,invasive front,D,cMET,0.0
NI240,N045,1,invasive front,D,HE,0.0
NI240,N045,1,normal,E,cMET,0.0
NI240,N045,1,normal,E,HE,1.0
NI240,N045,1,normal,F,HE,0.0
NI240,N045,1,normal,G,cMET,0.0
NI240,N045,1,normal,G,HE,0.0
NI240,N154,1,tumour,A,cMET,1.0
NI240,N154,1,tumour,A,HE,1.0
NI240,N154,1,tumour,B,cMET,1.0
NI240,N154,1,tumour,B,HE,0.0
NI240,N154,1,tumour,C,cMET,0.0
NI240,N154,1,tumour,C,HE,1.0
NI240,N154,1,invasive front,D,cMET,0.0
NI240,N154,1,invasive front,D,HE,0.0
NI240,N154,1,normal,F,cMET,0.0
NI240,N154,1,normal,F,HE,0.0
NI240,N154,1,normal,G,cMET,0.0
NI240,N154,1,normal,G,HE,0.0
NI240,N200,1,tumour,A,cMET,0.0
NI240,N200,1,tumour,A,HE,0.0
NI240,N200,1,tumour,B,cMET,0.0
NI240,N200,1,tumour,B,HE,0.0
NI240,N200,1,tumour,C,cMET,2.0
NI240,N200,1,tumour,C,HE,0.0
NI240,N200,1,invasive front,D,cMET,0.0
NI240,N200,1,invasive front,D,HE,0.0
NI240,N200,1,normal,E,cMET,0.0
NI240,N200,1,normal,E,HE,0.0
NI240,N200,1,normal,F,cMET,0.0
NI240,N200,1,normal,F,HE,0.0
NI240,N200,1,normal,G,cMET,0.0
NI240,N200,1,normal,G,HE,0.0
NI240,N155,1,tumour,A,cMET,0.0
NI240,N155,1,tumour,A,HE,4.0
NI240,N155,1,tumour,B,cMET,5.0
NI240,N155,1,tumour,B,HE,2.0
NI240,N155,1,tumour,C,cMET,5.0
NI240,N155,1,tumour,C,HE,1.0
NI240,N155,1,invasive front,D,cMET,1.0
NI240,N155,1,invasive front,D,HE,2.0
NI240,N155,1,normal,E,cMET,0.0
NI240,N155,1,normal,E,HE,0.0
NI240,N155,1,normal,F,cMET,0.0
NI240,N155,1,normal,F,HE,0.0
NI240,N052,1,tumour,A,cMET,0.0
NI240,N052,1,tumour,A,HE,0.0
NI240,N052,1,tumour,B,cMET,0.0
NI240,N052,1,tumour,B,HE,0.0
NI240,N052,1,tumour,C,cMET,0.0
NI240,N052,1,tumour,C,HE,0.0
NI240,N052,1,invasive front,D,cMET,0.0
NI240,N052,1,invasive front,D,HE,0.0
NI240,N052,1,normal,E,cMET,0.0
NI240,N052,1,normal,E,HE,1.0
NI240,N152,1,tumour,A,cMET,3.0
NI240,N152,1,tumour,A,HE,5.0
NI240,N152,1,tumour,B,cMET,5.0
NI240,N152,1,tumour,B,HE,4.0
NI240,N152,1,tumour,C,cMET,2.0
NI240,N152,1,tumour,C,HE,3.0
NI240,N152,1,invasive front,D,cMET,4.0
NI240,N152,1,invasive front,D,HE,3.0
NI240,N152,1,normal,E,cMET,0.0
NI240,N152,1,normal,E,HE,0.0
NI240,N152,1,normal,F,cMET,0.0
NI240,N152,1,normal,F,HE,0.0
NI240,N152,1,normal,G,cMET,0.0
NI240,N152,1,normal,G,HE,0.0
NI240,N204,1,tumour,A,cMET,0.0
NI240,N204,1,tumour,A,HE,0.0
NI240,N204,1,tumour,B,cMET,1.0
NI240,N204,1,tumour,B,HE,0.0
NI240,N204,1,tumour,C,cMET,1.0
NI240,N204,1,tumour,C,HE,2.0
NI240,N204,1,invasive front,D,cMET,0.0
NI240,N204,1,invasive front,D,HE,0.0
NI240,N204,1,normal,E,cMET,0.0
NI240,N204,1,normal,E,HE,0.0
NI240,N204,1,normal,F,cMET,0.0
NI240,N204,1,normal,F,HE,1.0
NI240,N204,1,normal,G,cMET,0.0
NI240,N204,1,normal,G,HE,0.0
NI240,N159,1,tumour,A,cMET,0.0
NI240,N159,1,tumour,A,HE,1.0
NI240,N159,1,tumour,B,cMET,1.0
NI240,N159,1,tumour,B,HE,0.0
NI240,N159,1,tumour,C,cMET,0.0
NI240,N159,1,tumour,C,HE,0.0
NI240,N159,1,invasive front,D,cMET,0.0
NI240,N159,1,invasive front,D,HE,0.0
NI240,N159,1,normal,E,cMET,1.0
NI240,N159,1,normal,E,HE,0.0
NI240,N159,1,normal,F,cMET,0.0
NI240,N159,1,normal,F,HE,0.0
NI240,N159,1,normal,G,cMET,0.0
NI240,N159,1,normal,G,HE,0.0
NI240,N197,1,tumour,A,cMET,3.0
NI240,N197,1,tumour,A,HE,0.0
NI240,N197,1,tumour,B,cMET,1.0
NI240,N197,1,tumour,B,HE,1.0
NI240,N197,1,tumour,C,cMET,3.0
NI240,N197,1,tumour,C,HE,2.0
NI240,N197,1,invasive front,D,cMET,2.0
NI240,N197,1,invasive front,D,HE,1.0
NI240,N197,1,normal,F,cMET,0.0
NI240,N197,1,normal,F,HE,0.0
NI240,N197,1,normal,G,cMET,0.0
NI240,N197,1,normal,G,HE,0.0
NI240,N058,2,tumour,A,cMET,0.0
NI240,N058,2,tumour,A,HE,0.0
NI240,N058,2,tumour,B,cMET,1.0
NI240,N058,2,tumour,B,HE,2.0
NI240,N058,2,tumour,C,cMET,2.0
NI240,N058,2,tumour,C,HE,1.0
NI240,N058,2,invasive front,D,cMET,3.0
NI240,N058,2,invasive front,D,HE,0.0
NI240,N157,2,tumour,A,cMET,1.0
NI240,N157,2,tumour,A,HE,0.0
NI240,N157,2,tumour,B,cMET,2.0
NI240,N157,2,tumour,B,HE,4.0
NI240,N157,2,tumour,C,cMET,7.0
NI240,N157,2,tumour,C,HE,4.0
NI240,N157,2,invasive front,D,cMET,1.0
NI240,N157,2,invasive front,D,HE,0.0
NI240,N055,2,tumour,A,cMET,0.0
NI240,N055,2,tumour,A,HE,1.0
NI240,N055,2,tumour,B,cMET,0.0
NI240,N055,2,tumour,B,HE,0.0
NI240,N055,2,tumour,C,cMET,0.0
NI240,N055,2,tumour,C,HE,4.0
NI240,N055,2,invasive front,D,cMET,0.0
NI240,N055,2,invasive front,D,HE,0.0
NI240,N055,2,normal,E,cMET,0.0
NI240,N055,2,normal,E,HE,0.0
NI240,N055,2,normal,F,cMET,0.0
NI240,N055,2,normal,F,HE,0.0
NI240,N055,2,normal,G,cMET,0.0
NI240,N055,2,normal,G,HE,0.0
NI240,N156,1,tumour,A,cMET,2.0
NI240,N156,1,tumour,A,HE,3.0
NI240,N156,1,tumour,B,cMET,3.0
NI240,N156,1,tumour,B,HE,2.0
NI240,N156,1,tumour,C,cMET,0.0
NI240,N156,1,tumour,C,HE,1.0
NI240,N156,1,invasive front,D,cMET,0.0
NI240,N156,1,invasive front,D,HE,0.0
NI240,N156,1,normal,E,cMET,0.0
NI240,N156,1,normal,E,HE,0.0
NI240,N060,2,tumour,A,cMET,0.0
NI240,N060,2,tumour,A,HE,0.0
NI240,N060,2,tumour,B,cMET,2.0
NI240,N060,2,tumour,B,HE,2.0
NI240,N060,2,tumour,C,cMET,3.0
NI240,N060,2,tumour,C,HE,3.0
NI240,N060,2,invasive front,D,cMET,0.0
NI240,N060,2,invasive front,D,HE,0.0
NI240,N060,2,normal,E,cMET,0.0
NI240,N060,2,normal,E,HE,0.0
NI240,N060,2,normal,F,cMET,0.0
NI240,N060,2,normal,F,HE,0.0
NI240,N060,2,normal,G,cMET,0.0
NI240,N060,2,normal,G,HE,0.0
NI240,N050,2,tumour,A,cMET,0.0
NI240,N050,2,tumour,A,HE,0.0
NI240,N050,2,tumour,B,cMET,0.0
NI240,N050,2,tumour,B,HE,0.0
NI240,N050,2,tumour,C,cMET,0.0
NI240,N050,2,tumour,C,HE,0.0
NI240,N050,2,invasive front,D,cMET,0.0
NI240,N050,2,invasive front,D,HE,0.0
NI240,N050,2,normal,E,cMET,0.0
NI240,N050,2,normal,E,HE,0.0
NI240,N050,2,normal,F,cMET,0.0
NI240,N050,2,normal,F,HE,0.0
NI240,N056,2,tumour,A,cMET,0.0
NI240,N056,2,tumour,A,HE,0.0
NI240,N056,2,tumour,B,cMET,0.0
NI240,N056,2,tumour,B,HE,0.0
NI240,N056,2,tumour,C,cMET,0.0
NI240,N056,2,tumour,C,HE,0.0
NI240,N056,2,invasive front,D,cMET,0.0
NI240,N056,2,invasive front,D,HE,1.0
NI240,N056,2,normal,E,cMET,0.0
NI240,N056,2,normal,E,HE,0.0
NI240,N056,2,normal,F,cMET,0.0
NI240,N056,2,normal,F,HE,1.0
NI240,N056,2,normal,G,cMET,1.0
NI240,N056,2,normal,G,HE,1.0
NI240,N062,2,tumour,A,cMET,0.0
NI240,N062,2,tumour,A,HE,0.0
NI240,N062,2,tumour,B,cMET,0.0
NI240,N062,2,tumour,B,HE,1.0
NI240,N062,2,tumour,C,cMET,2.0
NI240,N062,2,tumour,C,HE,3.0
NI240,N062,2,invasive front,D,cMET,1.0
NI240,N062,2,invasive front,D,HE,0.0
NI240,N062,2,normal,E,cMET,1.0
NI240,N062,2,normal,E,HE,0.0
NI240,N062,2,normal,F,cMET,0.0
NI240,N062,2,normal,F,HE,0.0
NI240,N062,2,normal,G,cMET,0.0
NI240,N062,2,normal,G,HE,0.0
NI240,N061,2,tumour,A,cMET,0.0
NI240,N061,2,tumour,A,HE,0.0
NI240,N061,2,tumour,B,cMET,0.0
NI240,N061,2,tumour,B,HE,0.0
NI240,N061,2,tumour,C,cMET,0.0
NI240,N061,2,tumour,C,HE,1.0
NI240,N061,2,invasive front,D,cMET,0.0
NI240,N061,2,invasive front,D,HE,1.0
NI240,N061,2,normal,E,cMET,0.0
NI240,N061,2,normal,E,HE,0.0
NI240,N061,2,normal,F,cMET,1.0
NI240,N061,2,normal,F,HE,0.0
NI240,N061,2,normal,G,cMET,0.0
NI240,N061,2,normal,G,HE,0.0
NI240,N160,1,tumour,A,cMET,1.0
NI240,N160,1,tumour,A,HE,0.0
NI240,N160,1,tumour,B,cMET,3.0
NI240,N160,1,tumour,B,HE,2.0
NI240,N160,1,tumour,C,cMET,2.0
NI240,N160,1,tumour,C,HE,4.0
NI240,N160,1,invasive front,D,cMET,3.0
NI240,N160,1,invasive front,D,HE,0.0
NI240,N202,1,tumour,A,cMET,2.0
NI240,N202,1,tumour,A,HE,3.0
NI240,N202,1,tumour,B,cMET,0.0
NI240,N202,1,tumour,B,HE,1.0
NI240,N202,1,tumour,C,cMET,1.0
NI240,N202,1,tumour,C,HE,2.0
NI240,N202,1,invasive front,D,cMET,2.0
NI240,N202,1,invasive front,D,HE,3.0
NI240,N065,2,tumour,A,cMET,0.0
NI240,N065,2,tumour,A,HE,2.0
NI240,N065,2,tumour,B,cMET,2.0
NI240,N065,2,tumour,B,HE,0.0
NI240,N065,2,tumour,C,cMET,0.0
NI240,N065,2,tumour,C,HE,0.0
NI240,N065,2,invasive front,D,cMET,0.0
NI240,N065,2,invasive front,D,HE,0.0
NI240,N065,2,normal,E,cMET,0.0
NI240,N065,2,normal,E,HE,0.0
NI240,N065,2,normal,F,cMET,0.0
NI240,N065,2,normal,F,HE,1.0
NI240,N065,2,normal,G,cMET,0.0
NI240,N065,2,normal,G,HE,0.0
NI240,N057,2,tumour,A,cMET,0.0
NI240,N057,2,tumour,A,HE,1.0
NI240,N057,2,tumour,B,cMET,0.0
NI240,N057,2,tumour,B,HE,0.0
NI240,N057,2,normal,E,cMET,0.0
NI240,N057,2,normal,E,HE,0.0
NI240,N057,2,normal,F,cMET,0.0
NI240,N057,2,normal,F,HE,0.0
NI240,N057,2,normal,G,cMET,0.0
NI240,N057,2,normal,G,HE,0.0
NI240,N161,1,tumour,A,cMET,8.0
NI240,N161,1,tumour,A,HE,7.0
NI240,N161,1,tumour,B,cMET,1.0
NI240,N161,1,tumour,B,HE,4.0
NI240,N161,1,tumour,C,cMET,12.0
NI240,N161,1,tumour,C,HE,17.0
NI240,N161,1,invasive front,D,cMET,1.0
NI240,N161,1,invasive front,D,HE,0.0
NI240,N161,1,normal,F,cMET,0.0
NI240,N161,1,normal,F,HE,0.0
NI240,N161,1,normal,G,cMET,0.0
NI240,N161,1,normal,G,HE,0.0
NI240,N240,1,tumour,A,cMET,1.0
NI240,N240,1,tumour,A,HE,0.0
NI240,N240,1,tumour,B,cMET,3.0
NI240,N240,1,tumour,B,HE,3.0
NI240,N240,1,tumour,C,cMET,2.0
NI240,N240,1,tumour,C,HE,0.0
NI240,N240,1,invasive front,D,cMET,0.0
NI240,N240,1,invasive front,D,HE,0.0
NI240,N240,1,normal,E,cMET,0.0
NI240,N240,1,normal,E,HE,0.0
NI240,N240,1,normal,F,cMET,1.0
NI240,N240,1,normal,F,HE,0.0
NI240,N240,1,normal,G,cMET,0.0
NI240,N240,1,normal,G,HE,3.0
NI240,N209,1,tumour,A,cMET,0.0
NI240,N209,1,tumour,A,HE,5.0
NI240,N209,1,tumour,B,HE,4.0
NI240,N209,1,tumour,C,cMET,2.0
NI240,N209,1,tumour,C,HE,2.0
NI240,N209,1,invasive front,D,cMET,0.0
NI240,N209,1,invasive front,D,HE,1.0
NI240,N209,1,normal,E,cMET,0.0
NI240,N209,1,normal,E,HE,0.0
NI240,N209,1,normal,F,cMET,0.0
NI240,N209,1,normal,F,HE,0.0
NI240,N163,1,tumour,A,cMET,1.0
NI240,N163,1,tumour,A,HE,1.0
NI240,N163,1,tumour,B,cMET,0.0
NI240,N163,1,tumour,B,HE,0.0
NI240,N163,1,tumour,C,cMET,0.0
NI240,N163,1,tumour,C,HE,0.0
NI240,N163,1,invasive front,D,cMET,0.0
NI240,N163,1,invasive front,D,HE,1.0
NI240,N163,1,normal,E,cMET,0.0
NI240,N163,1,normal,E,HE,0.0
NI240,N163,1,normal,F,cMET,0.0
NI240,N163,1,normal,F,HE,0.0
NI240,N163,1,normal,G,cMET,0.0
NI240,N163,1,normal,G,HE,0.0
NI240,N243,1,tumour,A,cMET,0.0
NI240,N243,1,tumour,A,HE,0.0
NI240,N243,1,tumour,B,cMET,0.0
NI240,N243,1,tumour,B,HE,0.0
NI240,N243,1,tumour,C,cMET,0.0
NI240,N243,1,tumour,C,HE,0.0
NI240,N243,1,invasive front,D,cMET,0.0
NI240,N243,1,invasive front,D,HE,0.0
NI240,N243,1,normal,E,HE,0.0
NI240,N243,1,normal,F,cMET,0.0
NI240,N243,1,normal,F,HE,0.0
NI240,N243,1,normal,G,cMET,0.0
NI240,N059,2,tumour,A,cMET,6.0
NI240,N059,2,tumour,A,HE,1.0
NI240,N059,2,tumour,B,cMET,1.0
NI240,N059,2,tumour,B,HE,0.0
NI240,N059,2,tumour,C,cMET,0.0
NI240,N059,2,tumour,C,HE,2.0
NI240,N059,2,invasive front,D,cMET,2.0
NI240,N059,2,invasive front,D,HE,0.0
NI240,N059,2,normal,E,cMET,0.0
NI240,N059,2,normal,E,HE,0.0
NI240,N059,2,normal,F,cMET,0.0
NI240,N059,2,normal,F,HE,0.0
NI240,N059,2,normal,G,cMET,0.0
NI240,N059,2,normal,G,HE,0.0
NI240,N054,2,tumour,A,cMET,3.0
NI240,N054,2,tumour,A,HE,0.0
NI240,N054,2,tumour,B,cMET,4.0
NI240,N054,2,tumour,B,HE,7.0
NI240,N054,2,tumour,C,cMET,4.0
NI240,N054,2,tumour,C,HE,3.0
NI240,N054,2,normal,E,cMET,2.0
NI240,N054,2,normal,E,HE,0.0
NI240,N054,2,normal,F,cMET,0.0
NI240,N054,2,normal,F,HE,0.0
NI240,N054,2,normal,G,cMET,0.0
NI240,N054,2,normal,G,HE,0.0
NI240,N210,1,tumour,A,cMET,0.0
NI240,N210,1,tumour,A,HE,1.0
NI240,N210,1,tumour,B,cMET,3.0
NI240,N210,1,tumour,B,HE,3.0
NI240,N210,1,tumour,C,cMET,0.0
NI240,N210,1,tumour,C,HE,2.0
NI240,N210,1,invasive front,D,cMET,0.0
NI240,N210,1,invasive front,D,HE,0.0
NI240,N210,1,normal,E,cMET,0.0
NI240,N210,1,normal,E,HE,0.0
NI240,N210,1,normal,F,cMET,0.0
NI240,N210,1,normal,F,HE,2.0
NI240,N210,1,normal,G,cMET,0.0
NI240,N210,1,normal,G,HE,1.0
NI240,N208,1,tumour,A,HE,0.0
NI240,N208,1,tumour,B,HE,0.0
NI240,N208,1,tumour,C,cMET,1.0
NI240,N208,1,tumour,C,HE,0.0
NI240,N208,1,invasive front,D,cMET,0.0
NI240,N208,1,invasive front,D,HE,0.0
NI240,N208,1,normal,F,cMET,0.0
NI240,N208,1,normal,F,HE,0.0
NI240,N208,1,normal,G,cMET,0.0
NI240,N208,1,normal,G,HE,0.0
NI240,N238,1,tumour,A,cMET,5.0
NI240,N238,1,tumour,A,HE,0.0
NI240,N238,1,tumour,B,cMET,0.0
NI240,N238,1,tumour,B,HE,0.0
NI240,N238,1,tumour,C,cMET,3.0
NI240,N238,1,tumour,C,HE,1.0
NI240,N238,1,invasive front,D,cMET,0.0
NI240,N238,1,invasive front,D,HE,0.0
NI240,N238,1,normal,E,cMET,0.0
NI240,N238,1,normal,E,HE,0.0
NI240,N238,1,normal,F,cMET,1.0
NI240,N238,1,normal,F,HE,2.0
NI240,N238,1,normal,G,cMET,0.0
NI240,N238,1,normal,G,HE,0.0
NI240,N162,1,tumour,A,cMET,3.0
NI240,N162,1,tumour,A,HE,0.0
NI240,N162,1,tumour,B,cMET,0.0
NI240,N162,1,tumour,B,HE,0.0
NI240,N162,1,tumour,C,cMET,0.0
NI240,N162,1,tumour,C,HE,0.0
NI240,N162,1,invasive front,D,cMET,0.0
NI240,N162,1,invasive front,D,HE,0.0
NI240,N069,2,tumour,A,cMET,0.0
NI240,N069,2,tumour,A,HE,0.0
NI240,N069,2,tumour,B,cMET,1.0
NI240,N069,2,tumour,B,HE,3.0
NI240,N069,2,tumour,C,cMET,5.0
NI240,N069,2,invasive front,D,cMET,3.0
NI240,N069,2,invasive front,D,HE,2.0
NI240,N069,2,normal,E,HE,0.0
NI240,N069,2,normal,F,cMET,0.0
NI240,N069,2,normal,F,HE,2.0
NI240,N069,2,normal,G,cMET,1.0
NI240,N069,2,normal,G,HE,1.0
NI240,N206,1,tumour,A,HE,0.0
NI240,N206,1,tumour,B,cMET,0.0
NI240,N206,1,tumour,B,HE,3.0
NI240,N206,1,tumour,C,cMET,1.0
NI240,N206,1,tumour,C,HE,2.0
NI240,N206,1,invasive front,D,cMET,2.0
NI240,N206,1,invasive front,D,HE,1.0
NI240,N206,1,normal,E,cMET,0.0
NI240,N206,1,normal,E,HE,1.0
NI240,N206,1,normal,F,cMET,0.0
NI240,N206,1,normal,F,HE,3.0
NI240,N206,1,normal,G,cMET,1.0
NI240,N206,1,normal,G,HE,0.0
NI240,N168,1,tumour,A,cMET,1.0
NI240,N168,1,tumour,A,HE,0.0
NI240,N168,1,tumour,B,cMET,1.0
NI240,N168,1,tumour,B,HE,0.0
NI240,N168,1,tumour,C,cMET,2.0
NI240,N168,1,tumour,C,HE,0.0
NI240,N168,1,invasive front,D,cMET,0.0
NI240,N168,1,invasive front,D,HE,0.0
NI240,N168,1,normal,E,cMET,0.0
NI240,N168,1,normal,E,HE,0.0
NI240,N168,1,normal,F,cMET,0.0
NI240,N168,1,normal,F,HE,0.0
NI240,N168,1,normal,G,cMET,0.0
NI240,N168,1,normal,G,HE,2.0
NI240,N169,1,tumour,A,cMET,0.0
NI240,N169,1,tumour,A,HE,1.0
NI240,N169,1,tumour,B,HE,0.0
NI240,N169,1,tumour,C,cMET,0.0
NI240,N169,1,tumour,C,HE,2.0
NI240,N169,1,invasive front,D,cMET,1.0
NI240,N169,1,invasive front,D,HE,0.0
NI240,N169,1,normal,F,cMET,0.0
NI240,N169,1,normal,G,cMET,0.0
NI240,N169,1,normal,G,HE,0.0
NI240,N164,1,tumour,A,cMET,6.0
NI240,N164,1,tumour,A,HE,10.0
NI240,N164,1,tumour,B,cMET,4.0
NI240,N164,1,tumour,B,HE,8.0
NI240,N164,1,tumour,C,cMET,19.0
NI240,N164,1,tumour,C,HE,14.0
NI240,N164,1,invasive front,D,cMET,11.0
NI240,N164,1,invasive front,D,HE,18.0
NI240,N164,1,normal,E,cMET,0.0
NI240,N164,1,normal,E,HE,0.0
NI240,N164,1,normal,F,cMET,0.0
NI240,N164,1,normal,F,HE,0.0
NI240,N164,1,normal,G,cMET,0.0
NI240,N164,1,normal,G,HE,0.0
NI240,N165,2,tumour,A,cMET,0.0
NI240,N165,2,tumour,A,HE,0.0
NI240,N165,2,tumour,B,cMET,0.0
NI240,N165,2,tumour,B,HE,0.0
NI240,N165,2,normal,E,HE,0.0
NI240,N165,2,normal,F,HE,0.0
NI240,N064,2,tumour,A,cMET,5.0
NI240,N064,2,tumour,A,HE,2.0
NI240,N064,2,tumour,B,cMET,3.0
NI240,N064,2,tumour,B,HE,1.0
NI240,N064,2,tumour,C,cMET,5.0
NI240,N064,2,tumour,C,HE,3.0
NI240,N064,2,invasive front,D,cMET,0.0
NI240,N064,2,invasive front,D,HE,2.0
NI240,N064,2,normal,E,cMET,0.0
NI240,N064,2,normal,E,HE,1.0
NI240,N064,2,normal,F,cMET,0.0
NI240,N064,2,normal,F,HE,2.0
NI240,N064,2,normal,G,cMET,1.0
NI240,N064,2,normal,G,HE,0.0
NI240,N063,2,tumour,A,cMET,0.0
NI240,N063,2,tumour,A,HE,0.0
NI240,N063,2,tumour,B,cMET,0.0
NI240,N063,2,tumour,B,HE,0.0
NI240,N063,2,tumour,C,cMET,0.0
NI240,N063,2,tumour,C,HE,3.0
NI240,N063,2,invasive front,D,cMET,3.0
NI240,N063,2,invasive front,D,HE,7.0
NI240,N063,2,normal,E,cMET,0.0
NI240,N063,2,normal,E,HE,0.0
NI240,N063,2,normal,F,cMET,0.0
NI240,N063,2,normal,F,HE,0.0
NI240,N063,2,normal,G,cMET,0.0
NI240,N063,2,normal,G,HE,0.0
NI240,N241,1,tumour,A,cMET,0.0
NI240,N241,1,tumour,A,HE,0.0
NI240,N241,1,tumour,B,cMET,1.0
NI240,N241,1,tumour,B,HE,0.0
NI240,N241,1,tumour,C,cMET,0.0
NI240,N241,1,tumour,C,HE,0.0
NI240,N241,1,invasive front,D,cMET,0.0
NI240,N241,1,invasive front,D,HE,0.0
NI240,N167,1,tumour,A,cMET,1.0
NI240,N167,1,tumour,A,HE,2.0
NI240,N167,1,tumour,B,cMET,0.0
NI240,N167,1,tumour,B,HE,1.0
NI240,N167,1,tumour,C,cMET,1.0
NI240,N167,1,tumour,C,HE,1.0
NI240,N167,1,invasive front,D,cMET,1.0
NI240,N167,1,invasive front,D,HE,3.0
NI240,N066,2,tumour,A,cMET,0.0
NI240,N066,2,tumour,A,HE,0.0
NI240,N066,2,tumour,B,cMET,2.0
NI240,N066,2,tumour,B,HE,0.0
NI240,N066,2,tumour,C,cMET,0.0
NI240,N066,2,tumour,C,HE,2.0
NI240,N066,2,invasive front,D,cMET,2.0
NI240,N066,2,invasive front,D,HE,1.0
NI240,N066,2,normal,E,cMET,0.0
NI240,N066,2,normal,E,HE,0.0
NI240,N066,2,normal,F,cMET,0.0
NI240,N066,2,normal,F,HE,0.0
NI240,N066,2,normal,G,cMET,0.0
NI240,N066,2,normal,G,HE,1.0
NI240,N067,2,tumour,A,cMET,1.0
NI240,N067,2,tumour,A,HE,0.0
NI240,N067,2,tumour,B,cMET,1.0
NI240,N067,2,tumour,B,HE,6.0
NI240,N067,2,tumour,C,cMET,6.0
NI240,N067,2,tumour,C,HE,14.0
NI240,N067,2,invasive front,D,cMET,0.0
NI240,N067,2,invasive front,D,HE,0.0
NI240,N067,2,normal,E,cMET,0.0
NI240,N067,2,normal,E,HE,0.0
NI240,N067,2,normal,F,cMET,0.0
NI240,N067,2,normal,F,HE,0.0
NI240,N067,2,normal,G,cMET,0.0
NI240,N067,2,normal,G,HE,0.0
NI240,N074,2,tumour,A,cMET,1.0
NI240,N074,2,tumour,A,HE,5.0
NI240,N074,2,tumour,B,cMET,3.0
NI240,N074,2,tumour,B,HE,7.0
NI240,N074,2,tumour,C,cMET,3.0
NI240,N074,2,tumour,C,HE,2.0
NI240,N074,2,invasive front,D,cMET,0.0
NI240,N074,2,invasive front,D,HE,1.0
NI240,N074,2,normal,E,cMET,0.0
NI240,N074,2,normal,E,HE,1.0
NI240,N074,2,normal,F,cMET,0.0
NI240,N074,2,normal,F,HE,0.0
NI240,N074,2,normal,G,cMET,0.0
NI240,N074,2,normal,G,HE,0.0
NI240,N068,2,tumour,A,cMET,1.0
NI240,N068,2,tumour,A,HE,0.0
NI240,N068,2,tumour,B,cMET,0.0
NI240,N068,2,tumour,B,HE,0.0
NI240,N068,2,tumour,C,cMET,0.0
NI240,N068,2,tumour,C,HE,0.0
NI240,N068,2,invasive front,D,cMET,0.0
NI240,N068,2,invasive front,D,HE,1.0
NI240,N068,2,normal,E,cMET,0.0
NI240,N068,2,normal,E,HE,0.0
NI240,N068,2,normal,F,cMET,0.0
NI240,N068,2,normal,F,HE,1.0
NI240,N068,2,normal,G,cMET,0.0
NI240,N068,2,normal,G,HE,0.0
NI240,N233,1,tumour,A,HE,0.0
NI240,N233,1,tumour,B,cMET,0.0
NI240,N233,1,tumour,B,HE,1.0
NI240,N233,1,tumour,C,cMET,0.0
NI240,N233,1,tumour,C,HE,0.0
NI240,N233,1,invasive front,D,HE,0.0
NI240,N233,1,normal,F,cMET,0.0
NI240,N233,1,normal,F,HE,0.0
NI240,N233,1,normal,G,cMET,0.0
NI240,N233,1,normal,G,HE,0.0
NI240,N117,1,tumour,A,cMET,0.0
NI240,N117,1,tumour,A,HE,0.0
NI240,N117,1,tumour,B,cMET,0.0
NI240,N117,1,tumour,B,HE,0.0
NI240,N117,1,tumour,C,cMET,0.0
NI240,N117,1,tumour,C,HE,0.0
NI240,N117,1,invasive front,D,cMET,0.0
NI240,N117,1,invasive front,D,HE,0.0
NI240,N117,1,normal,E,cMET,0.0
NI240,N117,1,normal,E,HE,0.0
NI240,N117,1,normal,F,HE,2.0
NI240,N117,1,normal,G,cMET,1.0
NI240,N117,1,normal,G,HE,5.0
NI240,N175,1,tumour,A,cMET,0.0
NI240,N175,1,tumour,A,HE,0.0
NI240,N175,1,tumour,B,cMET,1.0
NI240,N175,1,tumour,B,HE,2.0
NI240,N175,1,tumour,C,cMET,0.0
NI240,N175,1,tumour,C,HE,1.0
NI240,N175,1,invasive front,D,cMET,3.0
NI240,N175,1,invasive front,D,HE,4.0
NI240,N175,1,normal,E,cMET,0.0
NI240,N175,1,normal,E,HE,2.0
NI240,N175,1,normal,F,cMET,0.0
NI240,N175,1,normal,F,HE,0.0
NI240,N175,1,normal,G,cMET,0.0
NI240,N175,1,normal,G,HE,0.0
NI240,N212,1,tumour,A,cMET,0.0
NI240,N212,1,tumour,A,HE,0.0
NI240,N212,1,tumour,B,cMET,0.0
NI240,N212,1,tumour,B,HE,6.0
NI240,N212,1,tumour,C,cMET,2.0
NI240,N212,1,tumour,C,HE,0.0
NI240,N212,1,invasive front,D,cMET,0.0
NI240,N212,1,invasive front,D,HE,0.0
NI240,N212,1,normal,E,cMET,0.0
NI240,N212,1,normal,E,HE,0.0
NI240,N212,1,normal,G,cMET,1.0
NI240,N212,1,normal,G,HE,0.0
NI240,N171,1,tumour,A,cMET,1.0
NI240,N171,1,tumour,A,HE,0.0
NI240,N171,1,tumour,B,cMET,2.0
NI240,N171,1,tumour,B,HE,5.0
NI240,N171,1,tumour,C,cMET,0.0
NI240,N171,1,tumour,C,HE,1.0
NI240,N171,1,invasive front,D,cMET,3.0
NI240,N171,1,invasive front,D,HE,6.0
NI240,N171,1,normal,E,HE,0.0
NI240,N171,1,normal,F,cMET,0.0
NI240,N171,1,normal,F,HE,0.0
NI240,N171,1,normal,G,cMET,0.0
NI240,N171,1,normal,G,HE,0.0
NI240,N244,1,tumour,A,cMET,2.0
NI240,N244,1,tumour,A,HE,0.0
NI240,N244,1,tumour,B,cMET,0.0
NI240,N244,1,tumour,B,HE,4.0
NI240,N244,1,tumour,C,cMET,4.0
NI240,N244,1,tumour,C,HE,2.0
NI240,N244,1,invasive front,D,cMET,0.0
NI240,N244,1,invasive front,D,HE,0.0
NI240,N244,1,normal,F,cMET,0.0
NI240,N244,1,normal,F,HE,0.0
NI240,N244,1,normal,G,cMET,0.0
NI240,N244,1,normal,G,HE,0.0
NI240,N245,1,tumour,A,HE,0.0
NI240,N245,1,tumour,B,cMET,0.0
NI240,N245,1,tumour,B,HE,2.0
NI240,N245,1,tumour,C,cMET,4.0
NI240,N245,1,tumour,C,HE,7.0
NI240,N245,1,invasive front,D,cMET,1.0
NI240,N245,1,invasive front,D,HE,0.0
NI240,N245,1,normal,E,HE,0.0
NI240,N245,1,normal,F,cMET,0.0
NI240,N245,1,normal,F,HE,2.0
NI240,N245,1,normal,G,cMET,0.0
NI240,N245,1,normal,G,HE,0.0
NI240,N211,1,tumour,A,cMET,4.0
NI240,N211,1,tumour,A,HE,0.0
NI240,N211,1,tumour,B,cMET,0.0
NI240,N211,1,tumour,B,HE,2.0
NI240,N211,1,tumour,C,cMET,0.0
NI240,N211,1,tumour,C,HE,1.0
NI240,N211,1,invasive front,D,cMET,0.0
NI240,N211,1,invasive front,D,HE,0.0
NI240,N211,1,normal,E,cMET,1.0
NI240,N211,1,normal,E,HE,0.0
NI240,N211,1,normal,F,cMET,0.0
NI240,N211,1,normal,F,HE,0.0
NI240,N211,1,normal,G,cMET,0.0
NI240,N211,1,normal,G,HE,0.0
NI240,N173,1,tumour,A,cMET,0.0
NI240,N173,1,tumour,A,HE,0.0
NI240,N173,1,tumour,B,cMET,0.0
NI240,N173,1,tumour,B,HE,2.0
NI240,N173,1,tumour,C,cMET,0.0
NI240,N173,1,tumour,C,HE,2.0
NI240,N173,1,invasive front,D,cMET,0.0
NI240,N173,1,invasive front,D,HE,0.0
NI240,N173,1,normal,E,cMET,0.0
NI240,N173,1,normal,E,HE,1.0
NI240,N173,1,normal,F,cMET,0.0
NI240,N173,1,normal,F,HE,0.0
NI240,N173,1,normal,G,cMET,0.0
NI240,N173,1,normal,G,HE,0.0
NI240,N073,2,tumour,A,cMET,0.0
NI240,N073,2,tumour,A,HE,0.0
NI240,N073,2,tumour,B,cMET,2.0
NI240,N073,2,tumour,B,HE,4.0
NI240,N073,2,invasive front,D,cMET,1.0
NI240,N073,2,invasive front,D,HE,2.0
NI240,N073,2,normal,E,cMET,1.0
NI240,N073,2,normal,E,HE,2.0
NI240,N073,2,normal,F,cMET,0.0
NI240,N073,2,normal,F,HE,0.0
NI240,N073,2,normal,G,cMET,0.0
NI240,N073,2,normal,G,HE,0.0
NI240,N071,2,tumour,A,cMET,3.0
NI240,N071,2,tumour,A,HE,0.0
NI240,N071,2,tumour,B,cMET,5.0
NI240,N071,2,tumour,B,HE,6.0
NI240,N071,2,tumour,C,cMET,3.0
NI240,N071,2,invasive front,D,cMET,0.0
NI240,N071,2,invasive front,D,HE,2.0
NI240,N071,2,normal,E,HE,0.0
NI240,N071,2,normal,F,cMET,0.0
NI240,N071,2,normal,F,HE,1.0
NI240,N071,2,normal,G,cMET,0.0
NI240,N071,2,normal,G,HE,0.0
NI240,N248,1,tumour,A,cMET,0.0
NI240,N248,1,tumour,A,HE,0.0
NI240,N248,1,tumour,B,cMET,0.0
NI240,N248,1,tumour,B,HE,0.0
NI240,N248,1,tumour,C,cMET,0.0
NI240,N248,1,tumour,C,HE,1.0
NI240,N248,1,invasive front,D,cMET,1.0
NI240,N248,1,invasive front,D,HE,1.0
NI240,N248,1,normal,E,cMET,0.0
NI240,N248,1,normal,E,HE,0.0
NI240,N248,1,normal,F,cMET,0.0
NI240,N248,1,normal,F,HE,0.0
NI240,N248,1,normal,G,cMET,0.0
NI240,N248,1,normal,G,HE,0.0
NI240,N072,2,tumour,A,cMET,0.0
NI240,N072,2,tumour,A,HE,0.0
NI240,N072,2,tumour,B,cMET,0.0
NI240,N072,2,tumour,B,HE,0.0
NI240,N072,2,tumour,C,cMET,7.0
NI240,N072,2,tumour,C,HE,3.0
NI240,N072,2,invasive front,D,cMET,0.0
NI240,N072,2,invasive front,D,HE,0.0
NI240,N072,2,normal,E,cMET,0.0
NI240,N072,2,normal,F,cMET,0.0
NI240,N072,2,normal,F,HE,0.0
NI240,N072,2,normal,G,cMET,0.0
NI240,N072,2,normal,G,HE,0.0
NI240,N080,2,tumour,A,cMET,0.0
NI240,N080,2,tumour,A,HE,0.0
NI240,N080,2,tumour,B,cMET,2.0
NI240,N080,2,tumour,B,HE,7.0
NI240,N080,2,tumour,C,cMET,7.0
NI240,N080,2,tumour,C,HE,4.0
NI240,N080,2,invasive front,D,cMET,6.0
NI240,N080,2,invasive front,D,HE,6.0
NI240,N080,2,normal,E,cMET,0.0
NI240,N080,2,normal,E,HE,1.0
NI240,N080,2,normal,F,cMET,1.0
NI240,N080,2,normal,F,HE,0.0
NI240,N080,2,normal,G,cMET,0.0
NI240,N080,2,normal,G,HE,0.0
NI240,N083,2,tumour,A,cMET,0.0
NI240,N083,2,tumour,A,HE,1.0
NI240,N083,2,tumour,B,cMET,4.0
NI240,N083,2,tumour,B,HE,1.0
NI240,N083,2,tumour,C,cMET,0.0
NI240,N083,2,tumour,C,HE,3.0
NI240,N083,2,invasive front,D,cMET,0.0
NI240,N083,2,invasive front,D,HE,2.0
NI240,N083,2,normal,E,HE,0.0
NI240,N083,2,normal,F,cMET,0.0
NI240,N083,2,normal,F,HE,0.0
NI240,N083,2,normal,G,cMET,0.0
NI240,N083,2,normal,G,HE,0.0
NI240,N076,2,tumour,A,cMET,0.0
NI240,N076,2,tumour,A,HE,0.0
NI240,N076,2,tumour,B,cMET,0.0
NI240,N076,2,tumour,B,HE,1.0
NI240,N076,2,tumour,C,cMET,2.0
NI240,N076,2,tumour,C,HE,0.0
NI240,N076,2,invasive front,D,cMET,7.0
NI240,N076,2,invasive front,D,HE,4.0
NI240,N076,2,normal,E,cMET,0.0
NI240,N076,2,normal,E,HE,0.0
NI240,N076,2,normal,F,cMET,0.0
NI240,N076,2,normal,F,HE,1.0
NI240,N076,2,normal,G,cMET,1.0
NI240,N076,2,normal,G,HE,2.0
NI240,N082,2,tumour,A,HE,1.0
NI240,N082,2,tumour,B,cMET,1.0
NI240,N082,2,tumour,B,HE,5.0
NI240,N082,2,tumour,C,cMET,0.0
NI240,N082,2,tumour,C,HE,0.0
NI240,N082,2,invasive front,D,cMET,4.0
NI240,N082,2,invasive front,D,HE,1.0
NI240,N246,1,tumour,A,cMET,1.0
NI240,N246,1,tumour,A,HE,0.0
NI240,N246,1,tumour,B,cMET,0.0
NI240,N246,1,tumour,B,HE,0.0
NI240,N246,1,tumour,C,cMET,0.0
NI240,N246,1,tumour,C,HE,0.0
NI240,N246,1,invasive front,D,cMET,0.0
NI240,N246,1,invasive front,D,HE,0.0
NI240,N246,1,normal,E,cMET,1.0
NI240,N246,1,normal,E,HE,0.0
NI240,N246,1,normal,F,cMET,1.0
NI240,N246,1,normal,F,HE,0.0
NI240,N246,1,normal,G,cMET,0.0
NI240,N246,1,normal,G,HE,0.0
NI240,N081,2,tumour,A,cMET,0.0
NI240,N081,2,tumour,A,HE,2.0
NI240,N081,2,tumour,B,cMET,1.0
NI240,N081,2,tumour,B,HE,0.0
NI240,N081,2,tumour,C,cMET,3.0
NI240,N081,2,tumour,C,HE,8.0
NI240,N081,2,invasive front,D,cMET,3.0
NI240,N081,2,invasive front,D,HE,5.0
NI240,N081,2,normal,E,cMET,0.0
NI240,N081,2,normal,E,HE,0.0
NI240,N081,2,normal,F,cMET,0.0
NI240,N081,2,normal,F,HE,0.0
NI240,N081,2,normal,G,cMET,0.0
NI240,N081,2,normal,G,HE,1.0
NI240,N089,2,tumour,A,cMET,0.0
NI240,N089,2,tumour,A,HE,1.0
NI240,N089,2,tumour,B,cMET,0.0
NI240,N089,2,tumour,B,HE,2.0
NI240,N089,2,tumour,C,cMET,0.0
NI240,N089,2,tumour,C,HE,0.0
NI240,N089,2,invasive front,D,HE,0.0
NI240,N089,2,normal,F,cMET,0.0
NI240,N089,2,normal,F,HE,0.0
NI240,N249,1,tumour,A,cMET,2.0
NI240,N249,1,tumour,A,HE,0.0
NI240,N249,1,tumour,B,cMET,3.0
NI240,N249,1,tumour,B,HE,3.0
NI240,N249,1,tumour,C,cMET,0.0
NI240,N249,1,tumour,C,HE,0.0
NI240,N249,1,invasive front,D,cMET,1.0
NI240,N249,1,invasive front,D,HE,1.0
NI240,N249,1,normal,E,cMET,0.0
NI240,N249,1,normal,E,HE,0.0
NI240,N249,1,normal,F,cMET,0.0
NI240,N249,1,normal,F,HE,0.0
NI240,N249,1,normal,G,cMET,0.0
NI240,N249,1,normal,G,HE,0.0
NI240,N084,2,tumour,A,cMET,0.0
NI240,N084,2,tumour,A,HE,1.0
NI240,N084,2,tumour,B,cMET,4.0
NI240,N084,2,tumour,B,HE,2.0
NI240,N084,2,tumour,C,cMET,5.0
NI240,N084,2,tumour,C,HE,1.0
NI240,N084,2,invasive front,D,cMET,0.0
NI240,N084,2,invasive front,D,HE,3.0
NI240,N084,2,normal,E,cMET,0.0
NI240,N084,2,normal,E,HE,0.0
NI240,N084,2,normal,F,cMET,1.0
NI240,N084,2,normal,F,HE,0.0
NI240,N084,2,normal,G,cMET,0.0
NI240,N084,2,normal,G,HE,0.0
NI240,N088,1,tumour,A,cMET,5.0
NI240,N088,1,tumour,A,HE,4.0
NI240,N088,1,tumour,B,cMET,1.0
NI240,N088,1,tumour,B,HE,3.0
NI240,N088,1,tumour,C,cMET,0.0
NI240,N088,1,tumour,C,HE,0.0
NI240,N088,1,invasive front,D,cMET,3.0
NI240,N088,1,invasive front,D,HE,3.0
NI240,N088,1,normal,E,cMET,0.0
NI240,N088,1,normal,E,HE,2.0
NI240,N252,1,tumour,A,HE,5.0
NI240,N252,1,tumour,B,cMET,3.0
NI240,N252,1,tumour,B,HE,5.0
NI240,N252,1,tumour,C,cMET,0.0
NI240,N252,1,tumour,C,HE,2.0
NI240,N252,1,invasive front,D,cMET,0.0
NI240,N252,1,invasive front,D,HE,0.0
NI240,N252,1,normal,E,cMET,0.0
NI240,N252,1,normal,E,HE,0.0
NI240,N252,1,normal,F,cMET,0.0
NI240,N252,1,normal,F,HE,2.0
NI240,N252,1,normal,G,cMET,0.0
NI240,N252,1,normal,G,HE,0.0
NI240,N085,2,tumour,A,cMET,1.0
NI240,N085,2,tumour,A,HE,3.0
NI240,N085,2,tumour,B,cMET,0.0
NI240,N085,2,tumour,B,HE,1.0
NI240,N085,2,tumour,C,cMET,0.0
NI240,N085,2,tumour,C,HE,0.0
NI240,N085,2,invasive front,D,cMET,4.0
NI240,N085,2,invasive front,D,HE,1.0
NI240,N085,2,normal,E,cMET,1.0
NI240,N085,2,normal,E,HE,0.0
NI240,N085,2,normal,F,cMET,0.0
NI240,N085,2,normal,F,HE,0.0
NI240,N085,2,normal,G,cMET,0.0
NI240,N085,2,normal,G,HE,0.0
NI240,N091,2,tumour,A,cMET,0.0
NI240,N091,2,tumour,A,HE,1.0
NI240,N091,2,tumour,B,cMET,0.0
NI240,N091,2,tumour,B,HE,0.0
NI240,N091,2,tumour,C,cMET,2.0
NI240,N091,2,tumour,C,HE,3.0
NI240,N091,2,invasive front,D,cMET,0.0
NI240,N091,2,invasive front,D,HE,0.0
NI240,N091,2,normal,E,cMET,0.0
NI240,N091,2,normal,E,HE,0.0
NI240,N091,2,normal,G,cMET,0.0
NI240,N091,2,normal,G,HE,0.0
NI240,N101,2,tumour,A,cMET,4.0
NI240,N101,2,tumour,A,HE,2.0
NI240,N101,2,tumour,B,cMET,1.0
NI240,N101,2,tumour,B,HE,4.0
NI240,N101,2,tumour,C,cMET,1.0
NI240,N101,2,tumour,C,HE,2.0
NI240,N101,2,invasive front,D,cMET,2.0
NI240,N101,2,invasive front,D,HE,2.0
NI240,N101,2,normal,E,HE,0.0
NI240,N101,2,normal,F,cMET,0.0
NI240,N101,2,normal,F,HE,0.0
NI240,N110,1,tumour,A,cMET,0.0
NI240,N110,1,tumour,A,HE,0.0
NI240,N110,1,tumour,B,cMET,0.0
NI240,N110,1,tumour,B,HE,1.0
NI240,N110,1,tumour,C,cMET,0.0
NI240,N110,1,tumour,C,HE,0.0
NI240,N110,1,invasive front,D,cMET,0.0
NI240,N110,1,invasive front,D,HE,0.0
NI240,N110,1,normal,E,cMET,0.0
NI240,N110,1,normal,E,HE,3.0
NI240,N110,1,normal,F,cMET,1.0
NI240,N110,1,normal,F,HE,1.0
NI240,N110,1,normal,G,cMET,0.0
NI240,N110,1,normal,G,HE,0.0
NI240,N103,1,tumour,A,cMET,0.0
NI240,N103,1,tumour,A,HE,0.0
NI240,N103,1,tumour,B,cMET,0.0
NI240,N103,1,tumour,B,HE,0.0
NI240,N103,1,tumour,C,cMET,0.0
NI240,N103,1,tumour,C,HE,0.0
NI240,N103,1,invasive front,D,cMET,0.0
NI240,N103,1,invasive front,D,HE,0.0
NI240,N103,1,normal,E,cMET,0.0
NI240,N103,1,normal,E,HE,1.0
NI240,N103,1,normal,F,HE,1.0
NI240,N103,1,normal,G,cMET,0.0
NI240,N103,1,normal,G,HE,0.0
NI240,N213,1,tumour,A,cMET,0.0
NI240,N213,1,tumour,A,HE,0.0
NI240,N213,1,tumour,B,cMET,0.0
NI240,N213,1,tumour,B,HE,0.0
NI240,N213,1,tumour,C,cMET,2.0
NI240,N213,1,tumour,C,HE,0.0
NI240,N213,1,invasive front,D,cMET,0.0
NI240,N213,1,invasive front,D,HE,0.0
NI240,N213,1,normal,E,cMET,0.0
NI240,N213,1,normal,E,HE,0.0
NI240,N213,1,normal,G,cMET,0.0
NI240,N213,1,normal,G,HE,0.0
NI240,N090,2,tumour,A,cMET,0.0
NI240,N090,2,tumour,A,HE,1.0
NI240,N090,2,tumour,B,cMET,1.0
NI240,N090,2,tumour,B,HE,5.0
NI240,N090,2,tumour,C,cMET,3.0
NI240,N090,2,tumour,C,HE,6.0
NI240,N090,2,invasive front,D,cMET,3.0
NI240,N090,2,invasive front,D,HE,1.0
NI240,N090,2,normal,E,cMET,0.0
NI240,N090,2,normal,E,HE,0.0
NI240,N090,2,normal,F,cMET,1.0
NI240,N090,2,normal,F,HE,1.0
NI240,N086,2,tumour,A,cMET,0.0
NI240,N086,2,tumour,A,HE,1.0
NI240,N086,2,tumour,B,cMET,6.0
NI240,N086,2,tumour,B,HE,1.0
NI240,N086,2,tumour,C,cMET,0.0
NI240,N086,2,tumour,C,HE,0.0
NI240,N086,2,invasive front,D,cMET,2.0
NI240,N086,2,invasive front,D,HE,1.0
NI240,N086,2,normal,F,cMET,0.0
NI240,N086,2,normal,F,HE,0.0
NI240,N086,2,normal,G,cMET,0.0
NI240,N086,2,normal,G,HE,0.0
NI240,N218,1,tumour,A,cMET,0.0
NI240,N218,1,tumour,A,HE,0.0
NI240,N218,1,tumour,B,cMET,1.0
NI240,N218,1,tumour,B,HE,0.0
NI240,N218,1,invasive front,D,cMET,0.0
NI240,N218,1,invasive front,D,HE,0.0
NI240,N218,1,normal,E,cMET,0.0
NI240,N218,1,normal,E,HE,0.0
NI240,N214,1,tumour,A,cMET,0.0
NI240,N214,1,tumour,A,HE,0.0
NI240,N214,1,tumour,C,cMET,3.0
NI240,N214,1,tumour,C,HE,4.0
NI240,N214,1,invasive front,D,cMET,2.0
NI240,N214,1,invasive front,D,HE,1.0
NI240,N214,1,normal,E,cMET,0.0
NI240,N214,1,normal,E,HE,0.0
NI240,N214,1,normal,F,cMET,0.0
NI240,N214,1,normal,F,HE,0.0
NI240,N214,1,normal,G,cMET,0.0
NI240,N214,1,normal,G,HE,0.0
NI240,N087,2,tumour,A,cMET,2.0
NI240,N087,2,tumour,A,HE,2.0
NI240,N087,2,tumour,B,cMET,0.0
NI240,N087,2,tumour,B,HE,1.0
NI240,N087,2,tumour,C,cMET,2.0
NI240,N087,2,tumour,C,HE,5.0
NI240,N087,2,invasive front,D,cMET,2.0
NI240,N087,2,invasive front,D,HE,6.0
NI240,N087,2,normal,E,cMET,0.0
NI240,N087,2,normal,E,HE,0.0
NI240,N087,2,normal,F,cMET,3.0
NI240,N087,2,normal,F,HE,0.0
NI240,N087,2,normal,G,cMET,1.0
NI240,N087,2,normal,G,HE,2.0
NI240,N108,1,tumour,A,cMET,1.0
NI240,N108,1,tumour,A,HE,2.0
NI240,N108,1,tumour,B,cMET,0.0
NI240,N108,1,tumour,B,HE,0.0
NI240,N108,1,tumour,C,cMET,0.0
NI240,N108,1,tumour,C,HE,3.0
NI240,N108,1,invasive front,D,cMET,0.0
NI240,N108,1,invasive front,D,HE,0.0
NI240,N108,1,normal,E,cMET,0.0
NI240,N108,1,normal,E,HE,0.0
NI240,N108,1,normal,F,cMET,0.0
NI240,N108,1,normal,F,HE,0.0
NI240,N108,1,normal,G,cMET,0.0
NI240,N108,1,normal,G,HE,0.0
NI240,N093,2,tumour,A,cMET,3.0
NI240,N093,2,tumour,A,HE,2.0
NI240,N093,2,tumour,B,cMET,1.0
NI240,N093,2,tumour,B,HE,3.0
NI240,N093,2,invasive front,D,cMET,0.0
NI240,N093,2,invasive front,D,HE,3.0
NI240,N093,2,normal,E,cMET,1.0
NI240,N093,2,normal,E,HE,0.0
NI240,N093,2,normal,F,cMET,1.0
NI240,N093,2,normal,F,HE,0.0
NI240,N093,2,normal,G,cMET,0.0
NI240,N093,2,normal,G,HE,0.0
NI240,N096,2,tumour,A,cMET,1.0
NI240,N096,2,tumour,A,HE,2.0
NI240,N096,2,tumour,B,cMET,1.0
NI240,N096,2,tumour,B,HE,1.0
NI240,N096,2,tumour,C,cMET,5.0
NI240,N096,2,tumour,C,HE,2.0
NI240,N096,2,invasive front,D,cMET,0.0
NI240,N096,2,invasive front,D,HE,9.0
NI240,N096,2,normal,E,cMET,0.0
NI240,N096,2,normal,E,HE,0.0
NI240,N096,2,normal,F,cMET,1.0
NI240,N096,2,normal,F,HE,1.0
NI240,N096,2,normal,G,cMET,0.0
NI240,N096,2,normal,G,HE,0.0
NI240,N215,1,tumour,A,cMET,1.0
NI240,N215,1,tumour,A,HE,0.0
NI240,N215,1,tumour,B,cMET,1.0
NI240,N215,1,tumour,B,HE,0.0
NI240,N215,1,tumour,C,cMET,3.0
NI240,N215,1,tumour,C,HE,1.0
NI240,N215,1,invasive front,D,cMET,0.0
NI240,N215,1,invasive front,D,HE,0.0
NI240,N215,1,normal,E,cMET,2.0
NI240,N215,1,normal,E,HE,0.0
NI240,N215,1,normal,F,cMET,0.0
NI240,N215,1,normal,F,HE,1.0
NI240,N215,1,normal,G,cMET,0.0
NI240,N215,1,normal,G,HE,0.0
NI240,N176,1,tumour,A,cMET,2.0
NI240,N176,1,tumour,A,HE,2.0
NI240,N176,1,tumour,B,cMET,0.0
NI240,N176,1,tumour,B,HE,1.0
NI240,N176,1,tumour,C,cMET,1.0
NI240,N176,1,tumour,C,HE,1.0
NI240,N176,1,invasive front,D,cMET,1.0
NI240,N176,1,invasive front,D,HE,0.0
NI240,N176,1,normal,F,cMET,0.0
NI240,N176,1,normal,F,HE,0.0
NI240,N176,1,normal,G,cMET,0.0
NI240,N176,1,normal,G,HE,0.0
NI240,N100,2,tumour,A,cMET,5.0
NI240,N100,2,tumour,A,HE,1.0
NI240,N100,2,tumour,B,cMET,0.0
NI240,N100,2,tumour,B,HE,0.0
NI240,N100,2,tumour,C,cMET,0.0
NI240,N100,2,tumour,C,HE,1.0
NI240,N100,2,invasive front,D,cMET,5.0
NI240,N100,2,invasive front,D,HE,6.0
NI240,N098,1,tumour,A,cMET,1.0
NI240,N098,1,tumour,A,HE,2.0
NI240,N098,1,tumour,B,cMET,0.0
NI240,N098,1,tumour,B,HE,0.0
NI240,N098,1,tumour,C,cMET,0.0
NI240,N098,1,tumour,C,HE,2.0
NI240,N098,1,invasive front,D,cMET,2.0
NI240,N098,1,invasive front,D,HE,0.0
NI240,N098,1,normal,E,cMET,0.0
NI240,N098,1,normal,E,HE,0.0
NI240,N217,2,tumour,A,cMET,0.0
NI240,N217,2,tumour,A,HE,0.0
NI240,N217,2,tumour,B,cMET,2.0
NI240,N217,2,tumour,B,HE,2.0
NI240,N217,2,tumour,C,cMET,7.0
NI240,N217,2,tumour,C,HE,11.0
NI240,N217,2,normal,F,cMET,0.0
NI240,N217,2,normal,F,HE,0.0
NI240,N180,1,tumour,A,cMET,0.0
NI240,N180,1,tumour,A,HE,1.0
NI240,N180,1,tumour,B,cMET,3.0
NI240,N180,1,tumour,B,HE,6.0
NI240,N180,1,tumour,C,cMET,0.0
NI240,N180,1,tumour,C,HE,0.0
NI240,N180,1,invasive front,D,cMET,3.0
NI240,N180,1,invasive front,D,HE,3.0
NI240,N180,1,normal,E,cMET,2.0
NI240,N180,1,normal,E,HE,0.0
NI240,N104,2,tumour,A,cMET,3.0
NI240,N104,2,tumour,A,HE,1.0
NI240,N104,2,tumour,B,cMET,2.0
NI240,N104,2,tumour,B,HE,4.0
NI240,N104,2,tumour,C,cMET,1.0
NI240,N104,2,tumour,C,HE,0.0
NI240,N104,2,invasive front,D,cMET,3.0
NI240,N104,2,invasive front,D,HE,2.0
NI240,N179,1,tumour,A,cMET,0.0
NI240,N179,1,tumour,A,HE,2.0
NI240,N179,1,tumour,B,cMET,2.0
NI240,N179,1,tumour,B,HE,3.0
NI240,N179,1,tumour,C,cMET,1.0
NI240,N179,1,tumour,C,HE,4.0
NI240,N179,1,invasive front,D,cMET,0.0
NI240,N179,1,invasive front,D,HE,2.0
NI240,N179,1,normal,E,cMET,0.0
NI240,N179,1,normal,E,HE,0.0
NI240,N179,1,normal,F,cMET,0.0
NI240,N179,1,normal,F,HE,0.0
NI240,N179,1,normal,G,cMET,0.0
NI240,N179,1,normal,G,HE,0.0
NI240,N116,1,tumour,A,HE,0.0
NI240,N116,1,tumour,B,cMET,0.0
NI240,N116,1,tumour,B,HE,0.0
NI240,N116,1,tumour,C,cMET,0.0
NI240,N116,1,tumour,C,HE,0.0
NI240,N116,1,invasive front,D,cMET,0.0
NI240,N116,1,invasive front,D,HE,0.0
NI240,N116,1,normal,E,cMET,0.0
NI240,N116,1,normal,E,HE,0.0
NI240,N116,1,normal,F,cMET,0.0
NI240,N116,1,normal,F,HE,0.0
NI240,N116,1,normal,G,cMET,0.0
NI240,N116,1,normal,G,HE,0.0
NI240,N216,1,tumour,A,cMET,0.0
NI240,N216,1,tumour,A,HE,0.0
NI240,N216,1,tumour,B,cMET,0.0
NI240,N216,1,tumour,B,HE,3.0
NI240,N216,1,tumour,C,cMET,0.0
NI240,N216,1,tumour,C,HE,0.0
NI240,N216,1,invasive front,D,cMET,0.0
NI240,N216,1,invasive front,D,HE,0.0
NI240,N216,1,normal,E,cMET,0.0
NI240,N216,1,normal,E,HE,0.0
NI240,N216,1,normal,F,cMET,0.0
NI240,N216,1,normal,F,HE,0.0
NI240,N216,1,normal,G,cMET,0.0
NI240,N216,1,normal,G,HE,0.0
NI240,N181,1,tumour,A,cMET,2.0
NI240,N181,1,tumour,A,HE,0.0
NI240,N181,1,tumour,B,cMET,0.0
NI240,N181,1,tumour,B,HE,0.0
NI240,N181,1,tumour,C,cMET,4.0
NI240,N181,1,tumour,C,HE,2.0
NI240,N181,1,invasive front,D,cMET,0.0
NI240,N181,1,invasive front,D,HE,2.0
NI240,N181,1,normal,E,cMET,0.0
NI240,N181,1,normal,E,HE,0.0
NI240,N181,1,normal,F,cMET,0.0
NI240,N181,1,normal,F,HE,0.0
NI240,N181,1,normal,G,cMET,0.0
NI240,N181,1,normal,G,HE,0.0
NI240,N094,2,tumour,A,cMET,1.0
NI240,N094,2,tumour,A,HE,4.0
NI240,N094,2,tumour,B,cMET,2.0
NI240,N094,2,tumour,B,HE,4.0
NI240,N094,2,tumour,C,cMET,0.0
NI240,N094,2,invasive front,D,cMET,1.0
NI240,N094,2,invasive front,D,HE,0.0
NI240,N094,2,normal,E,cMET,0.0
NI240,N094,2,normal,E,HE,0.0
NI240,N094,2,normal,F,cMET,3.0
NI240,N094,2,normal,F,HE,0.0
NI240,N094,2,normal,G,cMET,1.0
NI240,N094,2,normal,G,HE,2.0
NI240,N177,1,tumour,A,cMET,2.0
NI240,N177,1,tumour,A,HE,0.0
NI240,N177,1,tumour,B,cMET,1.0
NI240,N177,1,tumour,B,HE,2.0
NI240,N177,1,tumour,C,cMET,4.0
NI240,N177,1,tumour,C,HE,4.0
NI240,N177,1,invasive front,D,cMET,3.0
NI240,N177,1,invasive front,D,HE,0.0
NI240,N177,1,normal,E,cMET,1.0
NI240,N177,1,normal,E,HE,0.0
NI240,N177,1,normal,F,HE,0.0
NI240,N177,1,normal,G,cMET,0.0
NI240,N177,1,normal,G,HE,1.0
NI240,N095,1,tumour,A,cMET,0.0
NI240,N095,1,tumour,A,HE,1.0
NI240,N095,1,tumour,B,cMET,0.0
NI240,N095,1,tumour,B,HE,0.0
NI240,N095,1,tumour,C,cMET,2.0
NI240,N095,1,tumour,C,HE,0.0
NI240,N095,1,invasive front,D,cMET,1.0
NI240,N095,1,invasive front,D,HE,0.0
NI240,N095,1,normal,E,cMET,0.0
NI240,N095,1,normal,E,HE,0.0
NI240,N095,1,normal,F,cMET,0.0
NI240,N095,1,normal,F,HE,0.0
NI240,N095,1,normal,G,cMET,0.0
NI240,N095,1,normal,G,HE,0.0
NI240,N122,1,tumour,A,cMET,0.0
NI240,N122,1,tumour,A,HE,0.0
NI240,N122,1,tumour,B,cMET,2.0
NI240,N122,1,tumour,B,HE,4.0
NI240,N122,1,tumour,C,HE,2.0
NI240,N122,1,invasive front,D,cMET,3.0
NI240,N122,1,invasive front,D,HE,0.0
NI240,N122,1,normal,F,cMET,0.0
NI240,N122,1,normal,F,HE,0.0
NI240,N122,1,normal,G,cMET,0.0
NI240,N122,1,normal,G,HE,0.0
NI240,N097,1,tumour,A,cMET,4.0
NI240,N097,1,tumour,A,HE,1.0
NI240,N097,1,tumour,B,cMET,2.0
NI240,N097,1,tumour,B,HE,4.0
NI240,N097,1,tumour,C,cMET,1.0
NI240,N097,1,tumour,C,HE,2.0
NI240,N097,1,invasive front,D,cMET,2.0
NI240,N097,1,invasive front,D,HE,0.0
NI240,N097,1,normal,E,cMET,0.0
NI240,N097,1,normal,E,HE,0.0
NI240,N097,1,normal,F,cMET,0.0
NI240,N097,1,normal,F,HE,0.0
NI240,N097,1,normal,G,cMET,0.0
NI240,N097,1,normal,G,HE,0.0
NI240,N254,1,tumour,A,cMET,0.0
NI240,N254,1,tumour,A,HE,0.0
NI240,N254,1,tumour,B,cMET,0.0
NI240,N254,1,tumour,B,HE,0.0
NI240,N254,1,tumour,C,cMET,0.0
NI240,N254,1,tumour,C,HE,0.0
NI240,N254,1,invasive front,D,cMET,0.0
NI240,N254,1,invasive front,D,HE,0.0
NI240,N254,1,normal,E,cMET,0.0
NI240,N254,1,normal,E,HE,0.0
NI240,N254,1,normal,F,cMET,0.0
NI240,N254,1,normal,F,HE,0.0
NI240,N254,1,normal,G,cMET,0.0
NI240,N254,1,normal,G,HE,0.0
NI240,N219,2,tumour,A,cMET,1.0
NI240,N219,2,tumour,A,HE,0.0
NI240,N219,2,tumour,B,cMET,0.0
NI240,N219,2,tumour,B,HE,0.0
NI240,N219,2,tumour,C,cMET,3.0
NI240,N219,2,tumour,C,HE,6.0
NI240,N219,2,normal,E,cMET,2.0
NI240,N219,2,normal,E,HE,1.0
NI240,N219,2,normal,F,cMET,0.0
NI240,N219,2,normal,F,HE,0.0
NI240,N219,2,normal,G,cMET,0.0
NI240,N219,2,normal,G,HE,2.0
NI240,N105,1,tumour,A,cMET,2.0
NI240,N105,1,tumour,A,HE,0.0
NI240,N105,1,tumour,B,cMET,0.0
NI240,N105,1,tumour,B,HE,3.0
NI240,N105,1,tumour,C,cMET,0.0
NI240,N105,1,tumour,C,HE,0.0
NI240,N105,1,invasive front,D,cMET,0.0
NI240,N105,1,invasive front,D,HE,1.0
NI240,N105,1,normal,E,cMET,0.0
NI240,N105,1,normal,E,HE,0.0
NI240,N105,1,normal,F,cMET,0.0
NI240,N105,1,normal,F,HE,0.0
NI240,N114,2,tumour,A,HE,0.0
NI240,N114,2,normal,E,cMET,0.0
NI240,N114,2,normal,E,HE,0.0
NI240,N114,2,normal,F,cMET,0.0
NI240,N114,2,normal,F,HE,0.0
NI240,N114,2,normal,G,HE,1.0
NI240,N113,1,tumour,A,cMET,0.0
NI240,N113,1,tumour,A,HE,0.0
NI240,N113,1,tumour,B,cMET,0.0
NI240,N113,1,tumour,B,HE,0.0
NI240,N113,1,tumour,C,cMET,0.0
NI240,N113,1,tumour,C,HE,0.0
NI240,N113,1,invasive front,D,cMET,0.0
NI240,N113,1,invasive front,D,HE,0.0
NI240,N113,1,normal,E,cMET,1.0
NI240,N113,1,normal,E,HE,3.0
NI240,N113,1,normal,F,cMET,2.0
NI240,N113,1,normal,F,HE,3.0
NI240,N113,1,normal,G,cMET,2.0
NI240,N113,1,normal,G,HE,1.0
NI240,N099,2,tumour,A,cMET,0.0
NI240,N099,2,tumour,A,HE,0.0
NI240,N099,2,tumour,B,cMET,1.0
NI240,N099,2,tumour,B,HE,3.0
NI240,N099,2,tumour,C,cMET,0.0
NI240,N099,2,tumour,C,HE,0.0
NI240,N099,2,invasive front,D,cMET,0.0
NI240,N099,2,invasive front,D,HE,0.0
NI240,N099,2,normal,E,cMET,0.0
NI240,N099,2,normal,E,HE,0.0
NI240,N099,2,normal,F,cMET,0.0
NI240,N099,2,normal,F,HE,0.0
NI240,N099,2,normal,G,cMET,0.0
NI240,N099,2,normal,G,HE,1.0
NI240,N220,2,tumour,A,cMET,0.0
NI240,N220,2,tumour,A,HE,2.0
NI240,N220,2,tumour,B,cMET,0.0
NI240,N220,2,tumour,B,HE,0.0
NI240,N220,2,tumour,C,cMET,0.0
NI240,N220,2,tumour,C,HE,0.0
NI240,N220,2,normal,E,cMET,0.0
NI240,N220,2,normal,E,HE,0.0
NI240,N220,2,normal,F,cMET,0.0
NI240,N220,2,normal,F,HE,1.0
NI240,N220,2,normal,G,cMET,0.0
NI240,N220,2,normal,G,HE,0.0
NI240,N106,2,tumour,A,cMET,0.0
NI240,N106,2,tumour,A,HE,0.0
NI240,N106,2,tumour,B,cMET,0.0
NI240,N106,2,tumour,B,HE,0.0
NI240,N106,2,tumour,C,cMET,4.0
NI240,N106,2,tumour,C,HE,1.0
NI240,N106,2,invasive front,D,cMET,4.0
NI240,N106,2,invasive front,D,HE,3.0
NI240,N106,2,normal,E,cMET,0.0
NI240,N106,2,normal,E,HE,0.0
NI240,N106,2,normal,F,cMET,0.0
NI240,N106,2,normal,F,HE,0.0
NI240,N106,2,normal,G,cMET,0.0
NI240,N106,2,normal,G,HE,0.0
NI240,N120,1,tumour,A,cMET,0.0
NI240,N120,1,tumour,A,HE,0.0
NI240,N120,1,tumour,B,cMET,1.0
NI240,N120,1,tumour,B,HE,0.0
NI240,N120,1,tumour,C,cMET,0.0
NI240,N120,1,tumour,C,HE,1.0
NI240,N120,1,invasive front,D,cMET,0.0
NI240,N120,1,invasive front,D,HE,0.0
NI240,N120,1,normal,E,cMET,1.0
NI240,N120,1,normal,E,HE,1.0
NI240,N120,1,normal,F,cMET,0.0
NI240,N120,1,normal,F,HE,1.0
NI240,N120,1,normal,G,cMET,0.0
NI240,N120,1,normal,G,HE,0.0
NI240,N109,1,tumour,A,cMET,0.0
NI240,N109,1,tumour,A,HE,2.0
NI240,N109,1,tumour,B,cMET,2.0
NI240,N109,1,tumour,B,HE,3.0
NI240,N109,1,tumour,C,cMET,0.0
NI240,N109,1,tumour,C,HE,2.0
NI240,N109,1,invasive front,D,cMET,0.0
NI240,N109,1,invasive front,D,HE,0.0
NI240,N109,1,normal,E,cMET,0.0
NI240,N109,1,normal,E,HE,0.0
NI240,N109,1,normal,F,cMET,0.0
NI240,N109,1,normal,F,HE,0.0
NI240,N109,1,normal,G,cMET,0.0
NI240,N109,1,normal,G,HE,0.0
NI240,N186,1,tumour,A,cMET,0.0
NI240,N186,1,tumour,A,HE,0.0
NI240,N186,1,tumour,B,cMET,2.0
NI240,N186,1,tumour,B,HE,0.0
NI240,N186,1,tumour,C,cMET,0.0
NI240,N186,1,tumour,C,HE,0.0
NI240,N186,1,invasive front,D,cMET,0.0
NI240,N186,1,invasive front,D,HE,0.0
NI240,N123,1,tumour,A,cMET,1.0
NI240,N123,1,tumour,A,HE,2.0
NI240,N123,1,tumour,B,cMET,0.0
NI240,N123,1,tumour,B,HE,2.0
NI240,N123,1,tumour,C,cMET,1.0
NI240,N123,1,tumour,C,HE,1.0
NI240,N123,1,invasive front,D,cMET,2.0
NI240,N123,1,invasive front,D,HE,0.0
NI240,N123,1,normal,E,cMET,2.0
NI240,N123,1,normal,E,HE,0.0
NI240,N123,1,normal,F,cMET,0.0
NI240,N123,1,normal,F,HE,0.0
NI240,N123,1,normal,G,cMET,0.0
NI240,N123,1,normal,G,HE,0.0
NI240,N112,1,tumour,A,cMET,2.0
NI240,N112,1,tumour,A,HE,3.0
NI240,N112,1,tumour,B,cMET,3.0
NI240,N112,1,tumour,B,HE,2.0
NI240,N112,1,tumour,C,cMET,3.0
NI240,N112,1,tumour,C,HE,2.0
NI240,N112,1,invasive front,D,cMET,5.0
NI240,N112,1,invasive front,D,HE,0.0
NI240,N112,1,normal,E,cMET,0.0
NI240,N112,1,normal,E,HE,0.0
NI240,N112,1,normal,F,cMET,1.0
NI240,N112,1,normal,F,HE,0.0
NI240,N112,1,normal,G,cMET,0.0
NI240,N112,1,normal,G,HE,0.0
NI240,N183,1,tumour,A,cMET,0.0
NI240,N183,1,tumour,A,HE,2.0
NI240,N183,1,tumour,B,cMET,1.0
NI240,N183,1,tumour,B,HE,2.0
NI240,N183,1,tumour,C,cMET,1.0
NI240,N183,1,tumour,C,HE,0.0
NI240,N183,1,invasive front,D,cMET,1.0
NI240,N183,1,invasive front,D,HE,0.0
NI240,N115,1,tumour,A,cMET,5.0
NI240,N115,1,tumour,A,HE,4.0
NI240,N115,1,tumour,B,cMET,0.0
NI240,N115,1,tumour,B,HE,0.0
NI240,N115,1,tumour,C,cMET,5.0
NI240,N115,1,tumour,C,HE,6.0
NI240,N115,1,invasive front,D,cMET,2.0
NI240,N115,1,invasive front,D,HE,3.0
NI240,N115,1,normal,E,cMET,0.0
NI240,N115,1,normal,E,HE,0.0
NI240,N115,1,normal,F,cMET,1.0
NI240,N115,1,normal,F,HE,0.0
NI240,N115,1,normal,G,cMET,0.0
NI240,N115,1,normal,G,HE,0.0
NI240,N182,1,tumour,A,cMET,0.0
NI240,N182,1,tumour,A,HE,0.0
NI240,N182,1,tumour,B,HE,0.0
NI240,N182,1,tumour,C,cMET,0.0
NI240,N182,1,tumour,C,HE,0.0
NI240,N182,1,invasive front,D,cMET,0.0
NI240,N182,1,invasive front,D,HE,0.0
NI240,N182,1,normal,E,cMET,0.0
NI240,N182,1,normal,E,HE,0.0
NI240,N182,1,normal,F,cMET,0.0
NI240,N182,1,normal,F,HE,0.0
NI240,N182,1,normal,G,cMET,1.0
NI240,N182,1,normal,G,HE,0.0
NI240,N121,2,tumour,A,cMET,0.0
NI240,N121,2,tumour,A,HE,0.0
NI240,N121,2,tumour,B,cMET,1.0
NI240,N121,2,tumour,B,HE,0.0
NI240,N121,2,tumour,C,cMET,4.0
NI240,N121,2,tumour,C,HE,4.0
NI240,N121,2,invasive front,D,cMET,1.0
NI240,N121,2,invasive front,D,HE,0.0
NI240,N184,1,tumour,A,cMET,0.0
NI240,N184,1,tumour,A,HE,0.0
NI240,N184,1,tumour,B,cMET,0.0
NI240,N184,1,tumour,B,HE,0.0
NI240,N184,1,tumour,C,cMET,1.0
NI240,N184,1,tumour,C,HE,0.0
NI240,N184,1,invasive front,D,cMET,3.0
NI240,N184,1,invasive front,D,HE,0.0
NI240,N184,1,normal,E,cMET,0.0
NI240,N184,1,normal,E,HE,0.0
NI240,N184,1,normal,F,cMET,0.0
NI240,N184,1,normal,F,HE,0.0
NI240,N184,1,normal,G,cMET,0.0
NI240,N184,1,normal,G,HE,0.0
NI240,N092,2,tumour,A,cMET,0.0
NI240,N092,2,tumour,A,HE,0.0
NI240,N092,2,tumour,B,cMET,1.0
NI240,N092,2,tumour,B,HE,3.0
NI240,N092,2,tumour,C,cMET,1.0
NI240,N092,2,tumour,C,HE,5.0
NI240,N092,2,invasive front,D,cMET,1.0
NI240,N092,2,invasive front,D,HE,0.0
NI240,N092,2,normal,E,cMET,1.0
NI240,N092,2,normal,E,HE,1.0
NI240,N092,2,normal,F,cMET,0.0
NI240,N092,2,normal,F,HE,0.0
NI240,N092,2,normal,G,cMET,0.0
NI240,N092,2,normal,G,HE,0.0
NI240,N053,2,tumour,A,cMET,2.0
NI240,N053,2,tumour,A,HE,0.0
NI240,N053,2,tumour,B,cMET,6.0
NI240,N053,2,tumour,B,HE,6.0
NI240,N053,2,tumour,C,cMET,0.0
NI240,N053,2,tumour,C,HE,1.0
NI240,N053,2,invasive front,D,cMET,1.0
NI240,N053,2,invasive front,D,HE,0.0
NI240,N053,2,normal,E,cMET,0.0
NI240,N053,2,normal,E,HE,0.0
NI240,N053,2,normal,F,cMET,0.0
NI240,N053,2,normal,F,HE,0.0
NI240,N053,2,normal,G,cMET,0.0
NI240,N053,2,normal,G,HE,0.0
NI240,N124,1,tumour,A,cMET,1.0
NI240,N124,1,tumour,A,HE,1.0
NI240,N124,1,tumour,B,cMET,0.0
NI240,N124,1,tumour,B,HE,3.0
NI240,N124,1,tumour,C,cMET,3.0
NI240,N124,1,tumour,C,HE,0.0
NI240,N124,1,invasive front,D,cMET,0.0
NI240,N124,1,invasive front,D,HE,1.0
NI240,N124,1,normal,E,cMET,0.0
NI240,N124,1,normal,E,HE,0.0
NI240,N124,1,normal,F,cMET,0.0
NI240,N124,1,normal,F,HE,0.0
NI240,N124,1,normal,G,cMET,0.0
NI240,N124,1,normal,G,HE,0.0
NI240,N126,1,tumour,A,cMET,0.0
NI240,N126,1,tumour,A,HE,1.0
NI240,N126,1,tumour,B,cMET,2.0
NI240,N126,1,tumour,B,HE,4.0
NI240,N126,1,tumour,C,cMET,2.0
NI240,N126,1,tumour,C,HE,1.0
NI240,N126,1,invasive front,D,cMET,1.0
NI240,N126,1,invasive front,D,HE,0.0
NI240,N126,1,normal,E,cMET,0.0
NI240,N126,1,normal,E,HE,0.0
NI240,N126,1,normal,F,cMET,0.0
NI240,N126,1,normal,F,HE,1.0
NI240,N126,1,normal,G,cMET,1.0
NI240,N126,1,normal,G,HE,4.0
NI240,N125,1,tumour,A,cMET,1.0
NI240,N125,1,tumour,A,HE,1.0
NI240,N125,1,tumour,B,cMET,5.0
NI240,N125,1,tumour,B,HE,4.0
NI240,N125,1,tumour,C,cMET,0.0
NI240,N125,1,tumour,C,HE,2.0
NI240,N125,1,invasive front,D,cMET,0.0
NI240,N125,1,invasive front,D,HE,0.0
NI240,N125,1,normal,E,cMET,0.0
NI240,N125,1,normal,E,HE,0.0
NI240,N125,1,normal,F,cMET,0.0
NI240,N125,1,normal,F,HE,0.0
NI240,N125,1,normal,G,cMET,0.0
NI240,N125,1,normal,G,HE,2.0
NI240,N222,1,tumour,A,cMET,0.0
NI240,N222,1,tumour,A,HE,1.0
NI240,N222,1,tumour,B,cMET,0.0
NI240,N222,1,tumour,B,HE,1.0
NI240,N222,1,tumour,C,cMET,0.0
NI240,N222,1,invasive front,D,cMET,0.0
NI240,N222,1,invasive front,D,HE,0.0
NI240,N222,1,normal,E,cMET,0.0
NI240,N222,1,normal,E,HE,0.0
NI240,N222,1,normal,F,cMET,0.0
NI240,N222,1,normal,F,HE,0.0
NI240,N222,1,normal,G,cMET,0.0
NI240,N222,1,normal,G,HE,0.0
NI240,N077,2,normal,E,cMET,1.0
NI240,N077,2,normal,E,HE,0.0
NI240,N077,2,normal,F,cMET,0.0
NI240,N077,2,normal,F,HE,1.0
NI240,N077,2,normal,G,cMET,0.0
NI240,N077,2,normal,G,HE,2.0
NI240,N191,1,tumour,A,cMET,4.0
NI240,N191,1,tumour,A,HE,0.0
NI240,N191,1,tumour,B,cMET,0.0
NI240,N191,1,tumour,B,HE,3.0
NI240,N191,1,tumour,C,cMET,0.0
NI240,N191,1,tumour,C,HE,2.0
NI240,N191,1,invasive front,D,cMET,0.0
NI240,N191,1,invasive front,D,HE,0.0
NI240,N191,1,normal,E,cMET,0.0
NI240,N191,1,normal,E,HE,0.0
NI240,N242,1,tumour,A,cMET,2.0
NI240,N242,1,tumour,A,HE,0.0
NI240,N242,1,tumour,B,cMET,4.0
NI240,N242,1,tumour,B,HE,2.0
NI240,N242,1,tumour,C,cMET,1.0
NI240,N242,1,tumour,C,HE,3.0
NI240,N242,1,invasive front,D,cMET,2.0
NI240,N242,1,invasive front,D,HE,1.0
NI240,N242,1,normal,E,cMET,0.0
NI240,N242,1,normal,E,HE,0.0
NI240,N242,1,normal,F,cMET,0.0
NI240,N242,1,normal,F,HE,1.0
NI240,N242,1,normal,G,cMET,0.0
NI240,N242,1,normal,G,HE,0.0
NI240,N017,2,normal,E,cMET,2.0
NI240,N017,2,normal,E,HE,1.0
NI240,N017,2,normal,F,cMET,0.0
NI240,N017,2,normal,F,HE,2.0
NI240,N017,2,normal,G,cMET,2.0
NI240,N017,2,normal,G,HE,3.0
